<svg width="89" height="55" viewBox="0 0 89 55" fill="none" xmlns="http://www.w3.org/2000/svg">
<rect y="13" width="89" height="42" rx="4" fill="#337E45"/>
<rect x="53.5" y="0.5" width="35" height="11" rx="2.5" fill="#337E45" stroke="white"/>
<path d="M1 44H88V51C88 52.6569 86.6569 54 85 54H4C2.34315 54 1 52.6569 1 51V44Z" fill="#F5DF29"/>
<path d="M29.9451 50.364V51H27.4745V50.364H29.9451ZM27.7015 46.3466V51H26.8992V46.3466H27.7015ZM29.6223 48.2898V48.9162H27.4745V48.2898H29.6223ZM29.9291 46.3466V46.9858H27.4745V46.3466H29.9291ZM31.9634 46.3466L32.951 48.0437L33.9386 46.3466H34.8622L33.456 48.6509L34.8974 51H33.9641L32.951 49.271L31.9378 51H31.0014L32.446 48.6509L31.0366 46.3466H31.9634ZM37.0979 46.3466V51H36.2957V46.3466H37.0979ZM40.6663 46.3466V51H39.8705V46.3466H40.6663ZM42.1269 46.3466V46.9858H38.4227V46.3466H42.1269ZM49.4331 48.5455V48.8011C49.4331 49.1527 49.3873 49.468 49.2957 49.7472C49.2041 50.0263 49.073 50.2638 48.9026 50.4599C48.7343 50.6559 48.5318 50.8061 48.2953 50.9105C48.0588 51.0128 47.7968 51.0639 47.5091 51.0639C47.2236 51.0639 46.9626 51.0128 46.7261 50.9105C46.4917 50.8061 46.2882 50.6559 46.1157 50.4599C45.9431 50.2638 45.8088 50.0263 45.713 49.7472C45.6192 49.468 45.5723 49.1527 45.5723 48.8011V48.5455C45.5723 48.1939 45.6192 47.8796 45.713 47.6026C45.8067 47.3235 45.9388 47.0859 46.1093 46.8899C46.2818 46.6918 46.4853 46.5415 46.7197 46.4393C46.9562 46.3349 47.2172 46.2827 47.5027 46.2827C47.7904 46.2827 48.0524 46.3349 48.2889 46.4393C48.5255 46.5415 48.7289 46.6918 48.8994 46.8899C49.0698 47.0859 49.2009 47.3235 49.2925 47.6026C49.3862 47.8796 49.4331 48.1939 49.4331 48.5455ZM48.6309 48.8011V48.5391C48.6309 48.2791 48.6054 48.0501 48.5542 47.8519C48.5052 47.6516 48.4317 47.4844 48.3337 47.3501C48.2378 47.2138 48.1196 47.1115 47.9789 47.0433C47.8383 46.973 47.6796 46.9379 47.5027 46.9379C47.3259 46.9379 47.1682 46.973 47.0297 47.0433C46.8912 47.1115 46.773 47.2138 46.675 47.3501C46.5791 47.4844 46.5056 47.6516 46.4544 47.8519C46.4033 48.0501 46.3777 48.2791 46.3777 48.5391V48.8011C46.3777 49.0611 46.4033 49.2912 46.4544 49.4915C46.5056 49.6918 46.5801 49.8612 46.6782 49.9996C46.7783 50.136 46.8976 50.2393 47.0361 50.3097C47.1746 50.3778 47.3323 50.4119 47.5091 50.4119C47.6881 50.4119 47.8468 50.3778 47.9853 50.3097C48.1238 50.2393 48.241 50.136 48.3369 49.9996C48.4328 49.8612 48.5052 49.6918 48.5542 49.4915C48.6054 49.2912 48.6309 49.0611 48.6309 48.8011ZM54.6795 46.3466V51H53.8773L51.7903 47.6665V51H50.9881V46.3466H51.7903L53.8836 49.6864V46.3466H54.6795ZM59.3026 50.364V51H56.9663V50.364H59.3026ZM57.19 46.3466V51H56.3878V46.3466H57.19ZM60.3078 46.3466L61.388 48.5678L62.4683 46.3466H63.3568L61.7907 49.2869V51H60.9821V49.2869L59.4161 46.3466H60.3078Z" fill="black"/>
<path d="M16.3878 37.3135H17.5442C17.7927 37.3135 18.0045 37.3509 18.1797 37.4258C18.3548 37.5006 18.4888 37.6114 18.5816 37.7581C18.6759 37.9033 18.7231 38.0829 18.7231 38.297C18.7231 38.4602 18.6931 38.6039 18.6332 38.7281C18.5734 38.8524 18.4888 38.9572 18.3795 39.0425C18.2702 39.1263 18.14 39.1914 17.9888 39.2379L17.8181 39.3209H16.7785L16.774 38.8741H17.5532C17.6879 38.8741 17.8002 38.8501 17.89 38.8022C17.9798 38.7543 18.0472 38.6892 18.0921 38.6069C18.1385 38.523 18.1617 38.4287 18.1617 38.3239C18.1617 38.2102 18.1392 38.1114 18.0943 38.0275C18.0509 37.9422 17.9835 37.8771 17.8922 37.8322C17.8009 37.7858 17.6849 37.7626 17.5442 37.7626H16.9514V40.5829H16.3878V37.3135ZM18.2538 40.5829L17.4858 39.1144L18.0764 39.1121L18.8555 40.5537V40.5829H18.2538ZM20.8305 40.6278C20.6508 40.6278 20.4884 40.5986 20.3432 40.5402C20.1995 40.4803 20.0767 40.3973 19.9749 40.291C19.8746 40.1847 19.7976 40.0597 19.7437 39.916C19.6898 39.7723 19.6628 39.6173 19.6628 39.4512V39.3614C19.6628 39.1712 19.6905 38.9991 19.7459 38.8449C19.8013 38.6907 19.8784 38.559 19.9772 38.4497C20.076 38.3389 20.1928 38.2543 20.3275 38.196C20.4622 38.1376 20.6082 38.1084 20.7653 38.1084C20.939 38.1084 21.0909 38.1376 21.2212 38.196C21.3514 38.2543 21.4592 38.3367 21.5445 38.443C21.6313 38.5477 21.6957 38.6727 21.7376 38.818C21.781 38.9632 21.8028 39.1233 21.8028 39.2985V39.5298H19.9255V39.1413H21.2683V39.0986C21.2653 39.0013 21.2459 38.91 21.2099 38.8247C21.1755 38.7394 21.1224 38.6705 21.0505 38.6181C20.9787 38.5657 20.8829 38.5395 20.7631 38.5395C20.6733 38.5395 20.5932 38.559 20.5228 38.5979C20.454 38.6353 20.3963 38.69 20.3499 38.7618C20.3035 38.8337 20.2676 38.9205 20.2422 39.0223C20.2182 39.1226 20.2062 39.2356 20.2062 39.3614V39.4512C20.2062 39.5575 20.2204 39.6563 20.2489 39.7476C20.2788 39.8374 20.3222 39.916 20.3791 39.9833C20.436 40.0507 20.5049 40.1039 20.5857 40.1428C20.6665 40.1802 20.7586 40.1989 20.8619 40.1989C20.9921 40.1989 21.1082 40.1727 21.2099 40.1203C21.3117 40.0679 21.4001 39.9938 21.4749 39.898L21.7601 40.1742C21.7077 40.2506 21.6396 40.3239 21.5558 40.3943C21.4719 40.4631 21.3694 40.5193 21.2481 40.5627C21.1284 40.6061 20.9891 40.6278 20.8305 40.6278ZM24.2358 40.0799V37.1339H24.7792V40.5829H24.2874L24.2358 40.0799ZM22.655 39.395V39.3479C22.655 39.1638 22.6767 38.9961 22.7201 38.8449C22.7635 38.6922 22.8264 38.5612 22.9087 38.4519C22.991 38.3412 23.0913 38.2566 23.2096 38.1982C23.3278 38.1383 23.4611 38.1084 23.6093 38.1084C23.756 38.1084 23.8847 38.1368 23.9955 38.1937C24.1063 38.2506 24.2006 38.3322 24.2784 38.4385C24.3563 38.5433 24.4184 38.669 24.4648 38.8157C24.5112 38.9609 24.5441 39.1226 24.5636 39.3007V39.4512C24.5441 39.6248 24.5112 39.7835 24.4648 39.9272C24.4184 40.0709 24.3563 40.1952 24.2784 40.3C24.2006 40.4047 24.1055 40.4856 23.9932 40.5425C23.8825 40.5994 23.753 40.6278 23.6048 40.6278C23.4581 40.6278 23.3256 40.5971 23.2073 40.5357C23.0906 40.4744 22.991 40.3883 22.9087 40.2775C22.8264 40.1667 22.7635 40.0365 22.7201 39.8868C22.6767 39.7356 22.655 39.5717 22.655 39.395ZM23.1961 39.3479V39.395C23.1961 39.5058 23.2058 39.6091 23.2253 39.7049C23.2463 39.8007 23.2784 39.8853 23.3219 39.9586C23.3653 40.0305 23.4214 40.0874 23.4903 40.1293C23.5606 40.1697 23.6445 40.1899 23.7418 40.1899C23.8645 40.1899 23.9656 40.163 24.0449 40.1091C24.1242 40.0552 24.1864 39.9826 24.2313 39.8913C24.2777 39.7985 24.3091 39.6952 24.3256 39.5814V39.175C24.3166 39.0867 24.2979 39.0043 24.2694 38.928C24.2425 38.8516 24.2058 38.785 24.1594 38.7281C24.113 38.6697 24.0554 38.6248 23.9865 38.5934C23.9191 38.5605 23.8391 38.544 23.7462 38.544C23.6474 38.544 23.5636 38.565 23.4948 38.6069C23.4259 38.6488 23.369 38.7064 23.3241 38.7798C23.2807 38.8531 23.2485 38.9385 23.2275 39.0358C23.2066 39.1331 23.1961 39.2371 23.1961 39.3479ZM27.2369 39.925C27.2369 39.8711 27.2234 39.8224 27.1964 39.779C27.1695 39.7341 27.1179 39.6937 27.0415 39.6578C26.9667 39.6218 26.8559 39.5889 26.7092 39.559C26.5804 39.5305 26.4622 39.4968 26.3544 39.4579C26.2481 39.4175 26.1568 39.3688 26.0805 39.312C26.0041 39.2551 25.945 39.1877 25.9031 39.1099C25.8611 39.032 25.8402 38.9422 25.8402 38.8404C25.8402 38.7416 25.8619 38.648 25.9053 38.5597C25.9487 38.4714 26.0108 38.3936 26.0917 38.3262C26.1725 38.2588 26.2706 38.2057 26.3858 38.1668C26.5026 38.1278 26.6328 38.1084 26.7765 38.1084C26.9801 38.1084 27.1545 38.1428 27.2997 38.2117C27.4464 38.279 27.5587 38.3711 27.6366 38.4879C27.7144 38.6031 27.7533 38.7334 27.7533 38.8786H27.2122C27.2122 38.8142 27.1957 38.7543 27.1628 38.6989C27.1313 38.6421 27.0834 38.5964 27.0191 38.562C26.9547 38.526 26.8739 38.5081 26.7765 38.5081C26.6837 38.5081 26.6066 38.523 26.5453 38.553C26.4854 38.5814 26.4405 38.6189 26.4105 38.6653C26.3821 38.7117 26.3679 38.7626 26.3679 38.818C26.3679 38.8584 26.3754 38.895 26.3903 38.928C26.4068 38.9594 26.4337 38.9886 26.4712 39.0156C26.5086 39.041 26.5595 39.065 26.6239 39.0874C26.6897 39.1099 26.7721 39.1316 26.8709 39.1525C27.0565 39.1914 27.2159 39.2416 27.3491 39.303C27.4839 39.3628 27.5872 39.4407 27.659 39.5365C27.7309 39.6308 27.7668 39.7506 27.7668 39.8958C27.7668 40.0036 27.7436 40.1024 27.6972 40.1922C27.6523 40.2805 27.5864 40.3576 27.4996 40.4235C27.4128 40.4878 27.3087 40.538 27.1875 40.5739C27.0677 40.6098 26.933 40.6278 26.7833 40.6278C26.5632 40.6278 26.3769 40.5889 26.2242 40.511C26.0715 40.4317 25.9555 40.3306 25.8761 40.2079C25.7983 40.0836 25.7594 39.9549 25.7594 39.8217H26.2825C26.2885 39.922 26.3162 40.0021 26.3656 40.0619C26.4165 40.1203 26.4794 40.163 26.5542 40.1899C26.6306 40.2154 26.7092 40.2281 26.79 40.2281C26.8873 40.2281 26.9689 40.2154 27.0348 40.1899C27.1006 40.163 27.1508 40.1271 27.1852 40.0821C27.2197 40.0357 27.2369 39.9833 27.2369 39.925ZM29.8832 38.1533V38.5485H28.5135V38.1533H29.8832ZM28.9087 37.5582H29.4498V39.9115C29.4498 39.9863 29.4603 40.044 29.4813 40.0844C29.5037 40.1233 29.5344 40.1495 29.5733 40.163C29.6122 40.1765 29.6579 40.1832 29.7103 40.1832C29.7477 40.1832 29.7836 40.1809 29.8181 40.1765C29.8525 40.172 29.8802 40.1675 29.9012 40.163L29.9034 40.5761C29.8585 40.5896 29.8061 40.6016 29.7462 40.6121C29.6878 40.6226 29.6205 40.6278 29.5441 40.6278C29.4199 40.6278 29.3098 40.6061 29.214 40.5627C29.1182 40.5178 29.0434 40.4452 28.9895 40.3449C28.9356 40.2446 28.9087 40.1113 28.9087 39.9452V37.5582ZM30.6725 39.395V39.3434C30.6725 39.1682 30.698 39.0058 30.7489 38.8561C30.7998 38.7049 30.8731 38.5739 30.9689 38.4632C31.0662 38.3509 31.1845 38.2641 31.3237 38.2027C31.4644 38.1398 31.6231 38.1084 31.7997 38.1084C31.9779 38.1084 32.1366 38.1398 32.2758 38.2027C32.4165 38.2641 32.5355 38.3509 32.6328 38.4632C32.7301 38.5739 32.8042 38.7049 32.8551 38.8561C32.906 39.0058 32.9315 39.1682 32.9315 39.3434V39.395C32.9315 39.5702 32.906 39.7326 32.8551 39.8823C32.8042 40.032 32.7301 40.163 32.6328 40.2753C32.5355 40.386 32.4172 40.4729 32.278 40.5357C32.1388 40.5971 31.9809 40.6278 31.8042 40.6278C31.6261 40.6278 31.4667 40.5971 31.3259 40.5357C31.1867 40.4729 31.0685 40.386 30.9712 40.2753C30.8739 40.163 30.7998 40.032 30.7489 39.8823C30.698 39.7326 30.6725 39.5702 30.6725 39.395ZM31.2137 39.3434V39.395C31.2137 39.5043 31.2249 39.6076 31.2474 39.7049C31.2698 39.8022 31.305 39.8875 31.3529 39.9609C31.4008 40.0342 31.4622 40.0919 31.537 40.1338C31.6119 40.1757 31.7009 40.1967 31.8042 40.1967C31.9045 40.1967 31.9914 40.1757 32.0647 40.1338C32.1396 40.0919 32.2009 40.0342 32.2488 39.9609C32.2967 39.8875 32.3319 39.8022 32.3544 39.7049C32.3783 39.6076 32.3903 39.5043 32.3903 39.395V39.3434C32.3903 39.2356 32.3783 39.1338 32.3544 39.038C32.3319 38.9407 32.296 38.8546 32.2466 38.7798C32.1987 38.7049 32.1373 38.6465 32.0625 38.6046C31.9891 38.5612 31.9015 38.5395 31.7997 38.5395C31.6979 38.5395 31.6096 38.5612 31.5348 38.6046C31.4614 38.6465 31.4008 38.7049 31.3529 38.7798C31.305 38.8546 31.2698 38.9407 31.2474 39.038C31.2249 39.1338 31.2137 39.2356 31.2137 39.3434ZM34.4506 38.672V40.5829H33.9094V38.1533H34.4191L34.4506 38.672ZM34.354 39.2783L34.1789 39.276C34.1804 39.1039 34.2043 38.9459 34.2507 38.8022C34.2986 38.6585 34.3645 38.535 34.4483 38.4317C34.5336 38.3284 34.6354 38.2491 34.7537 38.1937C34.872 38.1368 35.0037 38.1084 35.1489 38.1084C35.2657 38.1084 35.3712 38.1249 35.4655 38.1578C35.5613 38.1892 35.6429 38.2409 35.7103 38.3127C35.7791 38.3846 35.8315 38.4781 35.8674 38.5934C35.9034 38.7072 35.9213 38.8471 35.9213 39.0133V40.5829H35.3779V39.0111C35.3779 38.8943 35.3607 38.8022 35.3263 38.7349C35.2934 38.666 35.2447 38.6174 35.1803 38.5889C35.1175 38.559 35.0389 38.544 34.9446 38.544C34.8517 38.544 34.7687 38.5635 34.6953 38.6024C34.622 38.6413 34.5598 38.6945 34.5089 38.7618C34.4595 38.8292 34.4214 38.907 34.3944 38.9953C34.3675 39.0837 34.354 39.178 34.354 39.2783ZM38.0737 40.6278C37.894 40.6278 37.7316 40.5986 37.5864 40.5402C37.4427 40.4803 37.3199 40.3973 37.2181 40.291C37.1178 40.1847 37.0407 40.0597 36.9869 39.916C36.933 39.7723 36.906 39.6173 36.906 39.4512V39.3614C36.906 39.1712 36.9337 38.9991 36.9891 38.8449C37.0445 38.6907 37.1216 38.559 37.2204 38.4497C37.3192 38.3389 37.4359 38.2543 37.5707 38.196C37.7054 38.1376 37.8514 38.1084 38.0085 38.1084C38.1822 38.1084 38.3341 38.1376 38.4644 38.196C38.5946 38.2543 38.7024 38.3367 38.7877 38.443C38.8745 38.5477 38.9389 38.6727 38.9808 38.818C39.0242 38.9632 39.0459 39.1233 39.0459 39.2985V39.5298H37.1687V39.1413H38.5115V39.0986C38.5085 39.0013 38.4891 38.91 38.4531 38.8247C38.4187 38.7394 38.3656 38.6705 38.2937 38.6181C38.2219 38.5657 38.1261 38.5395 38.0063 38.5395C37.9165 38.5395 37.8364 38.559 37.766 38.5979C37.6972 38.6353 37.6395 38.69 37.5931 38.7618C37.5467 38.8337 37.5108 38.9205 37.4853 39.0223C37.4614 39.1226 37.4494 39.2356 37.4494 39.3614V39.4512C37.4494 39.5575 37.4636 39.6563 37.4921 39.7476C37.522 39.8374 37.5654 39.916 37.6223 39.9833C37.6792 40.0507 37.7481 40.1039 37.8289 40.1428C37.9097 40.1802 38.0018 40.1989 38.1051 40.1989C38.2353 40.1989 38.3513 40.1727 38.4531 40.1203C38.5549 40.0679 38.6433 39.9938 38.7181 39.898L39.0033 40.1742C38.9509 40.2506 38.8828 40.3239 38.7989 40.3943C38.7151 40.4631 38.6126 40.5193 38.4913 40.5627C38.3716 40.6061 38.2323 40.6278 38.0737 40.6278ZM42.9981 37.7491L42.0213 40.5829H41.4307L42.6612 37.3135H43.0385L42.9981 37.7491ZM43.8154 40.5829L42.8364 37.7491L42.7937 37.3135H43.1732L44.4082 40.5829H43.8154ZM43.7682 39.3703V39.8172H41.9898V39.3703H43.7682ZM45.7926 38.6159V40.5829H45.2514V38.1533H45.7679L45.7926 38.6159ZM46.5358 38.1376L46.5313 38.6406C46.4984 38.6346 46.4625 38.6301 46.4236 38.6271C46.3861 38.6241 46.3487 38.6226 46.3113 38.6226C46.2185 38.6226 46.1369 38.6361 46.0665 38.663C45.9962 38.6885 45.937 38.7259 45.8891 38.7753C45.8427 38.8232 45.8068 38.8816 45.7814 38.9504C45.7559 39.0193 45.7409 39.0964 45.7364 39.1817L45.6129 39.1907C45.6129 39.038 45.6279 38.8965 45.6578 38.7663C45.6878 38.6361 45.7327 38.5215 45.7926 38.4227C45.854 38.3239 45.9303 38.2469 46.0216 38.1915C46.1144 38.1361 46.2215 38.1084 46.3427 38.1084C46.3756 38.1084 46.4108 38.1114 46.4483 38.1174C46.4872 38.1234 46.5164 38.1301 46.5358 38.1376ZM48.7667 39.925C48.7667 39.8711 48.7533 39.8224 48.7263 39.779C48.6994 39.7341 48.6477 39.6937 48.5714 39.6578C48.4965 39.6218 48.3858 39.5889 48.2391 39.559C48.1103 39.5305 47.9921 39.4968 47.8843 39.4579C47.778 39.4175 47.6867 39.3688 47.6103 39.312C47.534 39.2551 47.4748 39.1877 47.4329 39.1099C47.391 39.032 47.3701 38.9422 47.3701 38.8404C47.3701 38.7416 47.3918 38.648 47.4352 38.5597C47.4786 38.4714 47.5407 38.3936 47.6216 38.3262C47.7024 38.2588 47.8004 38.2057 47.9157 38.1668C48.0325 38.1278 48.1627 38.1084 48.3064 38.1084C48.51 38.1084 48.6844 38.1428 48.8296 38.2117C48.9763 38.279 49.0886 38.3711 49.1664 38.4879C49.2443 38.6031 49.2832 38.7334 49.2832 38.8786H48.742C48.742 38.8142 48.7256 38.7543 48.6926 38.6989C48.6612 38.6421 48.6133 38.5964 48.5489 38.562C48.4846 38.526 48.4037 38.5081 48.3064 38.5081C48.2136 38.5081 48.1365 38.523 48.0751 38.553C48.0153 38.5814 47.9703 38.6189 47.9404 38.6653C47.912 38.7117 47.8977 38.7626 47.8977 38.818C47.8977 38.8584 47.9052 38.895 47.9202 38.928C47.9367 38.9594 47.9636 38.9886 48.001 39.0156C48.0385 39.041 48.0894 39.065 48.1537 39.0874C48.2196 39.1099 48.3019 39.1316 48.4007 39.1525C48.5864 39.1914 48.7458 39.2416 48.879 39.303C49.0137 39.3628 49.117 39.4407 49.1889 39.5365C49.2607 39.6308 49.2967 39.7506 49.2967 39.8958C49.2967 40.0036 49.2735 40.1024 49.2271 40.1922C49.1822 40.2805 49.1163 40.3576 49.0295 40.4235C48.9426 40.4878 48.8386 40.538 48.7173 40.5739C48.5976 40.6098 48.4629 40.6278 48.3132 40.6278C48.0931 40.6278 47.9067 40.5889 47.754 40.511C47.6013 40.4317 47.4853 40.3306 47.406 40.2079C47.3281 40.0836 47.2892 39.9549 47.2892 39.8217H47.8124C47.8184 39.922 47.8461 40.0021 47.8955 40.0619C47.9464 40.1203 48.0093 40.163 48.0841 40.1899C48.1605 40.2154 48.2391 40.2281 48.3199 40.2281C48.4172 40.2281 48.4988 40.2154 48.5646 40.1899C48.6305 40.163 48.6807 40.1271 48.7151 40.0821C48.7495 40.0357 48.7667 39.9833 48.7667 39.925ZM51.3704 40.6278C51.1908 40.6278 51.0283 40.5986 50.8831 40.5402C50.7394 40.4803 50.6167 40.3973 50.5149 40.291C50.4146 40.1847 50.3375 40.0597 50.2836 39.916C50.2297 39.7723 50.2028 39.6173 50.2028 39.4512V39.3614C50.2028 39.1712 50.2305 38.9991 50.2858 38.8449C50.3412 38.6907 50.4183 38.559 50.5171 38.4497C50.6159 38.3389 50.7327 38.2543 50.8674 38.196C51.0021 38.1376 51.1481 38.1084 51.3053 38.1084C51.4789 38.1084 51.6309 38.1376 51.7611 38.196C51.8913 38.2543 51.9991 38.3367 52.0845 38.443C52.1713 38.5477 52.2357 38.6727 52.2776 38.818C52.321 38.9632 52.3427 39.1233 52.3427 39.2985V39.5298H50.4655V39.1413H51.8083V39.0986C51.8053 39.0013 51.7858 38.91 51.7499 38.8247C51.7155 38.7394 51.6623 38.6705 51.5905 38.6181C51.5186 38.5657 51.4228 38.5395 51.303 38.5395C51.2132 38.5395 51.1331 38.559 51.0628 38.5979C50.9939 38.6353 50.9363 38.69 50.8899 38.7618C50.8435 38.8337 50.8075 38.9205 50.7821 39.0223C50.7581 39.1226 50.7462 39.2356 50.7462 39.3614V39.4512C50.7462 39.5575 50.7604 39.6563 50.7888 39.7476C50.8188 39.8374 50.8622 39.916 50.9191 39.9833C50.9759 40.0507 51.0448 40.1039 51.1256 40.1428C51.2065 40.1802 51.2985 40.1989 51.4018 40.1989C51.5321 40.1989 51.6481 40.1727 51.7499 40.1203C51.8517 40.0679 51.94 39.9938 52.0148 39.898L52.3 40.1742C52.2476 40.2506 52.1795 40.3239 52.0957 40.3943C52.0119 40.4631 51.9093 40.5193 51.7881 40.5627C51.6683 40.6061 51.5291 40.6278 51.3704 40.6278ZM53.8304 38.672V40.5829H53.2892V38.1533H53.7989L53.8304 38.672ZM53.7338 39.2783L53.5587 39.276C53.5602 39.1039 53.5841 38.9459 53.6305 38.8022C53.6784 38.6585 53.7443 38.535 53.8281 38.4317C53.9134 38.3284 54.0152 38.2491 54.1335 38.1937C54.2518 38.1368 54.3835 38.1084 54.5287 38.1084C54.6455 38.1084 54.751 38.1249 54.8453 38.1578C54.9411 38.1892 55.0227 38.2409 55.0901 38.3127C55.1589 38.3846 55.2113 38.4781 55.2472 38.5934C55.2832 38.7072 55.3011 38.8471 55.3011 39.0133V40.5829H54.7577V39.0111C54.7577 38.8943 54.7405 38.8022 54.7061 38.7349C54.6732 38.666 54.6245 38.6174 54.5601 38.5889C54.4973 38.559 54.4187 38.544 54.3244 38.544C54.2315 38.544 54.1485 38.5635 54.0751 38.6024C54.0018 38.6413 53.9396 38.6945 53.8887 38.7618C53.8393 38.8292 53.8012 38.907 53.7742 38.9953C53.7473 39.0837 53.7338 39.178 53.7338 39.2783ZM57.7521 40.0956V38.937C57.7521 38.8501 57.7364 38.7753 57.7049 38.7124C57.6735 38.6495 57.6256 38.6009 57.5612 38.5665C57.4984 38.532 57.419 38.5148 57.3232 38.5148C57.2349 38.5148 57.1585 38.5298 57.0942 38.5597C57.0298 38.5897 56.9797 38.6301 56.9437 38.681C56.9078 38.7319 56.8898 38.7895 56.8898 38.8539H56.3509C56.3509 38.7581 56.3741 38.6653 56.4205 38.5754C56.4669 38.4856 56.5343 38.4055 56.6226 38.3352C56.711 38.2648 56.8165 38.2094 56.9392 38.169C57.062 38.1286 57.1997 38.1084 57.3524 38.1084C57.535 38.1084 57.6967 38.1391 57.8374 38.2004C57.9796 38.2618 58.0912 38.3546 58.172 38.4789C58.2543 38.6016 58.2955 38.7558 58.2955 38.9415V40.0215C58.2955 40.1323 58.303 40.2318 58.318 40.3202C58.3344 40.407 58.3576 40.4826 58.3876 40.547V40.5829H57.8329C57.8075 40.5245 57.7873 40.4504 57.7723 40.3606C57.7588 40.2693 57.7521 40.1809 57.7521 40.0956ZM57.8307 39.1054L57.8352 39.4399H57.4467C57.3464 39.4399 57.2581 39.4497 57.1818 39.4691C57.1054 39.4871 57.0418 39.514 56.9909 39.55C56.94 39.5859 56.9018 39.6293 56.8764 39.6802C56.8509 39.7311 56.8382 39.7887 56.8382 39.8531C56.8382 39.9175 56.8532 39.9766 56.8831 40.0305C56.913 40.0829 56.9565 40.1241 57.0133 40.154C57.0717 40.1839 57.1421 40.1989 57.2244 40.1989C57.3352 40.1989 57.4317 40.1765 57.5141 40.1315C57.5979 40.0851 57.6638 40.029 57.7117 39.9631C57.7596 39.8958 57.785 39.8322 57.788 39.7723L57.9632 40.0125C57.9452 40.0739 57.9145 40.1398 57.8711 40.2101C57.8277 40.2805 57.7708 40.3479 57.7005 40.4122C57.6316 40.4751 57.5485 40.5267 57.4512 40.5672C57.3554 40.6076 57.2446 40.6278 57.1189 40.6278C56.9602 40.6278 56.8187 40.5964 56.6945 40.5335C56.5702 40.4691 56.4729 40.383 56.4026 40.2753C56.3322 40.166 56.297 40.0425 56.297 39.9048C56.297 39.776 56.321 39.6622 56.3689 39.5634C56.4183 39.4631 56.4901 39.3793 56.5845 39.312C56.6803 39.2446 56.797 39.1937 56.9347 39.1593C57.0725 39.1233 57.2297 39.1054 57.4063 39.1054H57.8307ZM59.9695 37.1339V40.5829H59.4261V37.1339H59.9695ZM65.3296 38.9123V40.1607C65.2832 40.2221 65.2105 40.2895 65.1117 40.3628C65.0144 40.4347 64.885 40.4968 64.7233 40.5492C64.5616 40.6016 64.3603 40.6278 64.1193 40.6278C63.9142 40.6278 63.7263 40.5934 63.5556 40.5245C63.385 40.4541 63.2375 40.3516 63.1133 40.2169C62.9905 40.0821 62.8955 39.9182 62.8281 39.7251C62.7607 39.5305 62.7271 39.309 62.7271 39.0605V38.8337C62.7271 38.5867 62.7578 38.3666 62.8191 38.1735C62.882 37.9789 62.9718 37.8142 63.0886 37.6795C63.2053 37.5448 63.3461 37.443 63.5107 37.3741C63.6769 37.3038 63.8648 37.2686 64.0743 37.2686C64.3423 37.2686 64.5639 37.3135 64.739 37.4033C64.9156 37.4916 65.0519 37.6144 65.1477 37.7716C65.2435 37.9287 65.3041 38.1084 65.3296 38.3105H64.7772C64.7592 38.1967 64.724 38.0949 64.6716 38.0051C64.6207 37.9153 64.5474 37.8449 64.4516 37.794C64.3573 37.7416 64.2345 37.7154 64.0833 37.7154C63.9531 37.7154 63.8386 37.7401 63.7398 37.7895C63.641 37.8389 63.5586 37.9115 63.4928 38.0073C63.4284 38.1031 63.3797 38.2199 63.3468 38.3576C63.3139 38.4954 63.2974 38.6525 63.2974 38.8292V39.0605C63.2974 39.2401 63.3161 39.3995 63.3536 39.5387C63.3925 39.678 63.4479 39.7955 63.5197 39.8913C63.5931 39.9871 63.6821 40.0597 63.7869 40.1091C63.8917 40.157 64.01 40.1809 64.1417 40.1809C64.2704 40.1809 64.376 40.1705 64.4583 40.1495C64.5407 40.1271 64.6058 40.1009 64.6537 40.0709C64.7031 40.0395 64.7412 40.0095 64.7682 39.9811V39.3322H64.0878V38.9123H65.3296ZM67.7985 40.0956V38.937C67.7985 38.8501 67.7828 38.7753 67.7513 38.7124C67.7199 38.6495 67.672 38.6009 67.6076 38.5665C67.5448 38.532 67.4654 38.5148 67.3696 38.5148C67.2813 38.5148 67.2049 38.5298 67.1406 38.5597C67.0762 38.5897 67.0261 38.6301 66.9901 38.681C66.9542 38.7319 66.9362 38.7895 66.9362 38.8539H66.3973C66.3973 38.7581 66.4205 38.6653 66.4669 38.5754C66.5133 38.4856 66.5807 38.4055 66.669 38.3352C66.7573 38.2648 66.8629 38.2094 66.9856 38.169C67.1084 38.1286 67.2461 38.1084 67.3988 38.1084C67.5814 38.1084 67.7431 38.1391 67.8838 38.2004C68.026 38.2618 68.1376 38.3546 68.2184 38.4789C68.3007 38.6016 68.3419 38.7558 68.3419 38.9415V40.0215C68.3419 40.1323 68.3494 40.2318 68.3644 40.3202C68.3808 40.407 68.404 40.4826 68.434 40.547V40.5829H67.8793C67.8539 40.5245 67.8337 40.4504 67.8187 40.3606C67.8052 40.2693 67.7985 40.1809 67.7985 40.0956ZM67.8771 39.1054L67.8816 39.4399H67.4931C67.3928 39.4399 67.3045 39.4497 67.2281 39.4691C67.1518 39.4871 67.0882 39.514 67.0373 39.55C66.9864 39.5859 66.9482 39.6293 66.9228 39.6802C66.8973 39.7311 66.8846 39.7887 66.8846 39.8531C66.8846 39.9175 66.8996 39.9766 66.9295 40.0305C66.9594 40.0829 67.0029 40.1241 67.0597 40.154C67.1181 40.1839 67.1885 40.1989 67.2708 40.1989C67.3816 40.1989 67.4781 40.1765 67.5605 40.1315C67.6443 40.0851 67.7102 40.029 67.7581 39.9631C67.806 39.8958 67.8314 39.8322 67.8344 39.7723L68.0096 40.0125C67.9916 40.0739 67.9609 40.1398 67.9175 40.2101C67.8741 40.2805 67.8172 40.3479 67.7468 40.4122C67.678 40.4751 67.5949 40.5267 67.4976 40.5672C67.4018 40.6076 67.291 40.6278 67.1653 40.6278C67.0066 40.6278 66.8651 40.5964 66.7409 40.5335C66.6166 40.4691 66.5193 40.383 66.449 40.2753C66.3786 40.166 66.3434 40.0425 66.3434 39.9048C66.3434 39.776 66.3674 39.6622 66.4153 39.5634C66.4647 39.4631 66.5365 39.3793 66.6309 39.312C66.7267 39.2446 66.8434 39.1937 66.9811 39.1593C67.1189 39.1233 67.276 39.1054 67.4527 39.1054H67.8771ZM70.5504 38.1533V38.5485H69.1806V38.1533H70.5504ZM69.5758 37.5582H70.117V39.9115C70.117 39.9863 70.1275 40.044 70.1484 40.0844C70.1709 40.1233 70.2016 40.1495 70.2405 40.163C70.2794 40.1765 70.3251 40.1832 70.3775 40.1832C70.4149 40.1832 70.4508 40.1809 70.4852 40.1765C70.5197 40.172 70.5474 40.1675 70.5683 40.163L70.5706 40.5761C70.5257 40.5896 70.4733 40.6016 70.4134 40.6121C70.355 40.6226 70.2876 40.6278 70.2113 40.6278C70.087 40.6278 69.977 40.6061 69.8812 40.5627C69.7854 40.5178 69.7105 40.4452 69.6567 40.3449C69.6028 40.2446 69.5758 40.1113 69.5758 39.9452V37.5582ZM72.5679 40.6278C72.3883 40.6278 72.2259 40.5986 72.0807 40.5402C71.937 40.4803 71.8142 40.3973 71.7124 40.291C71.6121 40.1847 71.535 40.0597 71.4811 39.916C71.4273 39.7723 71.4003 39.6173 71.4003 39.4512V39.3614C71.4003 39.1712 71.428 38.9991 71.4834 38.8449C71.5388 38.6907 71.6159 38.559 71.7147 38.4497C71.8135 38.3389 71.9302 38.2543 72.065 38.196C72.1997 38.1376 72.3456 38.1084 72.5028 38.1084C72.6765 38.1084 72.8284 38.1376 72.9587 38.196C73.0889 38.2543 73.1967 38.3367 73.282 38.443C73.3688 38.5477 73.4332 38.6727 73.4751 38.818C73.5185 38.9632 73.5402 39.1233 73.5402 39.2985V39.5298H71.663V39.1413H73.0058V39.0986C73.0028 39.0013 72.9834 38.91 72.9474 38.8247C72.913 38.7394 72.8599 38.6705 72.788 38.6181C72.7161 38.5657 72.6203 38.5395 72.5006 38.5395C72.4108 38.5395 72.3307 38.559 72.2603 38.5979C72.1915 38.6353 72.1338 38.69 72.0874 38.7618C72.041 38.8337 72.0051 38.9205 71.9796 39.0223C71.9557 39.1226 71.9437 39.2356 71.9437 39.3614V39.4512C71.9437 39.5575 71.9579 39.6563 71.9864 39.7476C72.0163 39.8374 72.0597 39.916 72.1166 39.9833C72.1735 40.0507 72.2424 40.1039 72.3232 40.1428C72.404 40.1802 72.4961 40.1989 72.5994 40.1989C72.7296 40.1989 72.8456 40.1727 72.9474 40.1203C73.0492 40.0679 73.1375 39.9938 73.2124 39.898L73.4976 40.1742C73.4452 40.2506 73.3771 40.3239 73.2932 40.3943C73.2094 40.4631 73.1069 40.5193 72.9856 40.5627C72.8658 40.6061 72.7266 40.6278 72.5679 40.6278Z" fill="white"/>
<path d="M20.7895 28.7306H21.9459C22.1944 28.7306 22.4062 28.768 22.5814 28.8429C22.7565 28.9177 22.8905 29.0285 22.9833 29.1752C23.0776 29.3204 23.1248 29.5 23.1248 29.7141C23.1248 29.8773 23.0949 30.021 23.035 30.1452C22.9751 30.2695 22.8905 30.3743 22.7812 30.4596C22.672 30.5434 22.5417 30.6086 22.3905 30.655L22.2199 30.738H21.1802L21.1757 30.2912H21.9549C22.0896 30.2912 22.2019 30.2672 22.2917 30.2193C22.3815 30.1714 22.4489 30.1063 22.4938 30.024C22.5402 29.9402 22.5634 29.8459 22.5634 29.7411C22.5634 29.6273 22.541 29.5285 22.4961 29.4447C22.4526 29.3593 22.3853 29.2942 22.294 29.2493C22.2027 29.2029 22.0866 29.1797 21.9459 29.1797H21.3531V32H20.7895V28.7306ZM22.6555 32L21.8875 30.5315L22.4781 30.5292L23.2573 31.9708V32H22.6555ZM25.2322 32.0449C25.0526 32.0449 24.8901 32.0157 24.7449 31.9573C24.6012 31.8975 24.4785 31.8144 24.3767 31.7081C24.2764 31.6018 24.1993 31.4768 24.1454 31.3331C24.0915 31.1894 24.0646 31.0345 24.0646 30.8683V30.7785C24.0646 30.5884 24.0923 30.4162 24.1476 30.262C24.203 30.1078 24.2801 29.9761 24.3789 29.8668C24.4777 29.756 24.5945 29.6715 24.7292 29.6131C24.8639 29.5547 25.0099 29.5255 25.1671 29.5255C25.3407 29.5255 25.4927 29.5547 25.6229 29.6131C25.7532 29.6715 25.8609 29.7538 25.9463 29.8601C26.0331 29.9649 26.0975 30.0899 26.1394 30.2351C26.1828 30.3803 26.2045 30.5404 26.2045 30.7156V30.9469H24.3273V30.5584H25.6701V30.5157C25.6671 30.4184 25.6476 30.3271 25.6117 30.2418C25.5773 30.1565 25.5241 30.0876 25.4523 30.0352C25.3804 29.9828 25.2846 29.9566 25.1648 29.9566C25.075 29.9566 24.9949 29.9761 24.9246 30.015C24.8557 30.0524 24.7981 30.1071 24.7517 30.1789C24.7053 30.2508 24.6693 30.3376 24.6439 30.4394C24.6199 30.5397 24.608 30.6527 24.608 30.7785V30.8683C24.608 30.9746 24.6222 31.0734 24.6506 31.1647C24.6806 31.2545 24.724 31.3331 24.7809 31.4005C24.8378 31.4678 24.9066 31.521 24.9874 31.5599C25.0683 31.5973 25.1604 31.616 25.2636 31.616C25.3939 31.616 25.5099 31.5898 25.6117 31.5374C25.7135 31.485 25.8018 31.4109 25.8767 31.3151L26.1618 31.5913C26.1094 31.6677 26.0413 31.741 25.9575 31.8114C25.8737 31.8802 25.7711 31.9364 25.6499 31.9798C25.5301 32.0232 25.3909 32.0449 25.2322 32.0449ZM28.5185 31.3421C28.5185 31.2882 28.505 31.2395 28.4781 31.1961C28.4511 31.1512 28.3995 31.1108 28.3231 31.0749C28.2483 31.0389 28.1375 31.006 27.9908 30.9761C27.8621 30.9476 27.7438 30.9139 27.636 30.875C27.5297 30.8346 27.4384 30.786 27.3621 30.7291C27.2857 30.6722 27.2266 30.6048 27.1847 30.527C27.1428 30.4491 27.1218 30.3593 27.1218 30.2575C27.1218 30.1587 27.1435 30.0652 27.1869 29.9768C27.2303 29.8885 27.2925 29.8107 27.3733 29.7433C27.4541 29.6759 27.5522 29.6228 27.6675 29.5839C27.7842 29.545 27.9145 29.5255 28.0582 29.5255C28.2618 29.5255 28.4362 29.5599 28.5814 29.6288C28.7281 29.6962 28.8403 29.7882 28.9182 29.905C28.996 30.0202 29.0349 30.1505 29.0349 30.2957H28.4938C28.4938 30.2313 28.4773 30.1714 28.4444 30.1161C28.413 30.0592 28.365 30.0135 28.3007 29.9791C28.2363 29.9432 28.1555 29.9252 28.0582 29.9252C27.9654 29.9252 27.8883 29.9402 27.8269 29.9701C27.767 29.9985 27.7221 30.036 27.6922 30.0824C27.6637 30.1288 27.6495 30.1797 27.6495 30.2351C27.6495 30.2755 27.657 30.3122 27.6719 30.3451C27.6884 30.3765 27.7154 30.4057 27.7528 30.4327C27.7902 30.4581 27.8411 30.4821 27.9055 30.5045C27.9713 30.527 28.0537 30.5487 28.1525 30.5696C28.3381 30.6086 28.4975 30.6587 28.6308 30.7201C28.7655 30.78 28.8688 30.8578 28.9406 30.9536C29.0125 31.0479 29.0484 31.1677 29.0484 31.3129C29.0484 31.4207 29.0252 31.5195 28.9788 31.6093C28.9339 31.6976 28.868 31.7747 28.7812 31.8406C28.6944 31.9049 28.5903 31.9551 28.4691 31.991C28.3493 32.0269 28.2146 32.0449 28.0649 32.0449C27.8448 32.0449 27.6585 32.006 27.5058 31.9281C27.3531 31.8488 27.2371 31.7478 27.1577 31.625C27.0799 31.5008 27.041 31.372 27.041 31.2388H27.5642C27.5702 31.3391 27.5978 31.4192 27.6472 31.4791C27.6981 31.5374 27.761 31.5801 27.8359 31.607C27.9122 31.6325 27.9908 31.6452 28.0716 31.6452C28.1689 31.6452 28.2505 31.6325 28.3164 31.607C28.3823 31.5801 28.4324 31.5442 28.4668 31.4993C28.5013 31.4529 28.5185 31.4005 28.5185 31.3421ZM31.1221 32.0449C30.9425 32.0449 30.7801 32.0157 30.6349 31.9573C30.4912 31.8975 30.3684 31.8144 30.2666 31.7081C30.1663 31.6018 30.0892 31.4768 30.0353 31.3331C29.9815 31.1894 29.9545 31.0345 29.9545 30.8683V30.7785C29.9545 30.5884 29.9822 30.4162 30.0376 30.262C30.093 30.1078 30.1701 29.9761 30.2689 29.8668C30.3677 29.756 30.4844 29.6715 30.6192 29.6131C30.7539 29.5547 30.8998 29.5255 31.057 29.5255C31.2307 29.5255 31.3826 29.5547 31.5129 29.6131C31.6431 29.6715 31.7509 29.7538 31.8362 29.8601C31.923 29.9649 31.9874 30.0899 32.0293 30.2351C32.0727 30.3803 32.0944 30.5404 32.0944 30.7156V30.9469H30.2172V30.5584H31.56V30.5157C31.557 30.4184 31.5376 30.3271 31.5016 30.2418C31.4672 30.1565 31.4141 30.0876 31.3422 30.0352C31.2703 29.9828 31.1745 29.9566 31.0548 29.9566C30.965 29.9566 30.8849 29.9761 30.8145 30.015C30.7457 30.0524 30.688 30.1071 30.6416 30.1789C30.5952 30.2508 30.5593 30.3376 30.5338 30.4394C30.5099 30.5397 30.4979 30.6527 30.4979 30.7785V30.8683C30.4979 30.9746 30.5121 31.0734 30.5406 31.1647C30.5705 31.2545 30.6139 31.3331 30.6708 31.4005C30.7277 31.4678 30.7966 31.521 30.8774 31.5599C30.9582 31.5973 31.0503 31.616 31.1536 31.616C31.2838 31.616 31.3998 31.5898 31.5016 31.5374C31.6034 31.485 31.6917 31.4109 31.7666 31.3151L32.0518 31.5913C31.9994 31.6677 31.9313 31.741 31.8474 31.8114C31.7636 31.8802 31.6611 31.9364 31.5398 31.9798C31.42 32.0232 31.2808 32.0449 31.1221 32.0449ZM34.4152 31.5127V30.3541C34.4152 30.2672 34.3994 30.1924 34.368 30.1295C34.3366 30.0667 34.2887 30.018 34.2243 29.9836C34.1614 29.9491 34.0821 29.9319 33.9863 29.9319C33.898 29.9319 33.8216 29.9469 33.7572 29.9768C33.6929 30.0068 33.6427 30.0472 33.6068 30.0981C33.5709 30.149 33.5529 30.2066 33.5529 30.271H33.014C33.014 30.1752 33.0372 30.0824 33.0836 29.9926C33.13 29.9027 33.1974 29.8226 33.2857 29.7523C33.374 29.6819 33.4796 29.6265 33.6023 29.5861C33.7251 29.5457 33.8628 29.5255 34.0155 29.5255C34.1981 29.5255 34.3598 29.5562 34.5005 29.6176C34.6427 29.6789 34.7542 29.7718 34.8351 29.896C34.9174 30.0188 34.9586 30.1729 34.9586 30.3586V31.4386C34.9586 31.5494 34.9661 31.649 34.981 31.7373C34.9975 31.8241 35.0207 31.8997 35.0506 31.9641V32H34.496C34.4706 31.9416 34.4503 31.8675 34.4354 31.7777C34.4219 31.6864 34.4152 31.5981 34.4152 31.5127ZM34.4938 30.5225L34.4982 30.8571H34.1098C34.0095 30.8571 33.9212 30.8668 33.8448 30.8862C33.7685 30.9042 33.7049 30.9312 33.654 30.9671C33.6031 31.003 33.5649 31.0464 33.5394 31.0973C33.514 31.1482 33.5013 31.2059 33.5013 31.2702C33.5013 31.3346 33.5162 31.3937 33.5462 31.4476C33.5761 31.5 33.6195 31.5412 33.6764 31.5711C33.7348 31.6011 33.8051 31.616 33.8875 31.616C33.9983 31.616 34.0948 31.5936 34.1771 31.5487C34.261 31.5023 34.3268 31.4461 34.3747 31.3803C34.4227 31.3129 34.4481 31.2493 34.4511 31.1894L34.6262 31.4297C34.6083 31.491 34.5776 31.5569 34.5342 31.6273C34.4908 31.6976 34.4339 31.765 34.3635 31.8293C34.2947 31.8922 34.2116 31.9439 34.1143 31.9843C34.0185 32.0247 33.9077 32.0449 33.7819 32.0449C33.6233 32.0449 33.4818 32.0135 33.3576 31.9506C33.2333 31.8862 33.136 31.8002 33.0656 31.6924C32.9953 31.5831 32.9601 31.4596 32.9601 31.3219C32.9601 31.1931 32.9841 31.0794 33.032 30.9806C33.0814 30.8803 33.1532 30.7964 33.2475 30.7291C33.3433 30.6617 33.4601 30.6108 33.5978 30.5764C33.7355 30.5404 33.8927 30.5225 34.0694 30.5225H34.4938ZM36.5967 30.033V32H36.0555V29.5704H36.572L36.5967 30.033ZM37.3399 29.5547L37.3354 30.0577C37.3025 30.0517 37.2666 30.0472 37.2277 30.0442C37.1902 30.0412 37.1528 30.0397 37.1154 30.0397C37.0226 30.0397 36.941 30.0532 36.8706 30.0801C36.8003 30.1056 36.7411 30.143 36.6932 30.1924C36.6468 30.2403 36.6109 30.2987 36.5855 30.3675C36.56 30.4364 36.545 30.5135 36.5405 30.5988L36.417 30.6078C36.417 30.4551 36.432 30.3137 36.462 30.1834C36.4919 30.0532 36.5368 29.9387 36.5967 29.8399C36.6581 29.7411 36.7344 29.664 36.8257 29.6086C36.9185 29.5532 37.0256 29.5255 37.1468 29.5255C37.1798 29.5255 37.2149 29.5285 37.2524 29.5345C37.2913 29.5405 37.3205 29.5472 37.3399 29.5547ZM39.1554 31.6138C39.2438 31.6138 39.3231 31.5966 39.3935 31.5621C39.4653 31.5262 39.5229 31.4768 39.5664 31.4139C39.6113 31.3511 39.636 31.2785 39.6405 31.1961H40.1502C40.1472 31.3533 40.1008 31.4963 40.011 31.625C39.9211 31.7537 39.8021 31.8563 39.6539 31.9326C39.5057 32.0075 39.3418 32.0449 39.1622 32.0449C38.9765 32.0449 38.8149 32.0135 38.6771 31.9506C38.5394 31.8862 38.4249 31.7979 38.3336 31.6856C38.2423 31.5734 38.1734 31.4439 38.127 31.2972C38.0821 31.1505 38.0596 30.9933 38.0596 30.8256V30.747C38.0596 30.5794 38.0821 30.4222 38.127 30.2755C38.1734 30.1273 38.2423 29.997 38.3336 29.8848C38.4249 29.7725 38.5394 29.6849 38.6771 29.6221C38.8149 29.5577 38.9758 29.5255 39.1599 29.5255C39.3545 29.5255 39.5252 29.5644 39.6719 29.6423C39.8186 29.7186 39.9339 29.8256 40.0177 29.9634C40.103 30.0996 40.1472 30.2583 40.1502 30.4394H39.6405C39.636 30.3496 39.6135 30.2687 39.5731 30.1969C39.5342 30.1235 39.4788 30.0652 39.4069 30.0217C39.3366 29.9783 39.252 29.9566 39.1532 29.9566C39.0439 29.9566 38.9533 29.9791 38.8815 30.024C38.8096 30.0674 38.7535 30.1273 38.7131 30.2036C38.6727 30.2785 38.6435 30.3631 38.6255 30.4574C38.609 30.5502 38.6008 30.6467 38.6008 30.747V30.8256C38.6008 30.9259 38.609 31.0232 38.6255 31.1175C38.642 31.2118 38.6704 31.2964 38.7108 31.3713C38.7527 31.4446 38.8096 31.5038 38.8815 31.5487C38.9533 31.5921 39.0447 31.6138 39.1554 31.6138ZM41.6289 28.551V32H41.0899V28.551H41.6289ZM41.5345 30.6954L41.3594 30.6931C41.3609 30.5255 41.3841 30.3705 41.429 30.2283C41.4754 30.0861 41.5398 29.9626 41.6221 29.8578C41.706 29.7515 41.8062 29.67 41.923 29.6131C42.0398 29.5547 42.1693 29.5255 42.3115 29.5255C42.4312 29.5255 42.539 29.542 42.6348 29.5749C42.7321 29.6078 42.816 29.661 42.8863 29.7343C42.9567 29.8062 43.0098 29.9005 43.0457 30.0173C43.0832 30.1325 43.1019 30.2732 43.1019 30.4394V32H42.5585V30.4349C42.5585 30.3181 42.5413 30.2253 42.5068 30.1565C42.4739 30.0876 42.4252 30.0382 42.3609 30.0083C42.2965 29.9768 42.2179 29.9611 42.1251 29.9611C42.0278 29.9611 41.9417 29.9806 41.8669 30.0195C41.7935 30.0584 41.7321 30.1116 41.6827 30.1789C41.6333 30.2463 41.5959 30.3241 41.5705 30.4125C41.5465 30.5008 41.5345 30.5951 41.5345 30.6954ZM47.1483 30.7807H46.2973V30.3339H47.1483C47.2965 30.3339 47.4163 30.3099 47.5076 30.262C47.5989 30.2141 47.6655 30.1482 47.7074 30.0644C47.7508 29.9791 47.7725 29.8818 47.7725 29.7725C47.7725 29.6692 47.7508 29.5727 47.7074 29.4828C47.6655 29.3915 47.5989 29.3182 47.5076 29.2628C47.4163 29.2074 47.2965 29.1797 47.1483 29.1797H46.4702V32H45.9066V28.7306H47.1483C47.4013 28.7306 47.6161 28.7755 47.7927 28.8653C47.9709 28.9537 48.1064 29.0764 48.1992 29.2336C48.292 29.3893 48.3384 29.5674 48.3384 29.768C48.3384 29.9791 48.292 30.1602 48.1992 30.3114C48.1064 30.4626 47.9709 30.5786 47.7927 30.6595C47.6161 30.7403 47.4013 30.7807 47.1483 30.7807ZM50.6614 31.5127V30.3541C50.6614 30.2672 50.6457 30.1924 50.6142 30.1295C50.5828 30.0667 50.5349 30.018 50.4705 29.9836C50.4076 29.9491 50.3283 29.9319 50.2325 29.9319C50.1442 29.9319 50.0678 29.9469 50.0035 29.9768C49.9391 30.0068 49.8889 30.0472 49.853 30.0981C49.8171 30.149 49.7991 30.2066 49.7991 30.271H49.2602C49.2602 30.1752 49.2834 30.0824 49.3298 29.9926C49.3762 29.9027 49.4436 29.8226 49.5319 29.7523C49.6202 29.6819 49.7258 29.6265 49.8485 29.5861C49.9713 29.5457 50.109 29.5255 50.2617 29.5255C50.4443 29.5255 50.606 29.5562 50.7467 29.6176C50.8889 29.6789 51.0004 29.7718 51.0813 29.896C51.1636 30.0188 51.2048 30.1729 51.2048 30.3586V31.4386C51.2048 31.5494 51.2123 31.649 51.2272 31.7373C51.2437 31.8241 51.2669 31.8997 51.2968 31.9641V32H50.7422C50.7168 31.9416 50.6966 31.8675 50.6816 31.7777C50.6681 31.6864 50.6614 31.5981 50.6614 31.5127ZM50.74 30.5225L50.7445 30.8571H50.356C50.2557 30.8571 50.1674 30.8668 50.091 30.8862C50.0147 30.9042 49.9511 30.9312 49.9002 30.9671C49.8493 31.003 49.8111 31.0464 49.7856 31.0973C49.7602 31.1482 49.7475 31.2059 49.7475 31.2702C49.7475 31.3346 49.7624 31.3937 49.7924 31.4476C49.8223 31.5 49.8657 31.5412 49.9226 31.5711C49.981 31.6011 50.0514 31.616 50.1337 31.616C50.2445 31.616 50.341 31.5936 50.4234 31.5487C50.5072 31.5023 50.5731 31.4461 50.621 31.3803C50.6689 31.3129 50.6943 31.2493 50.6973 31.1894L50.8724 31.4297C50.8545 31.491 50.8238 31.5569 50.7804 31.6273C50.737 31.6976 50.6801 31.765 50.6097 31.8293C50.5409 31.8922 50.4578 31.9439 50.3605 31.9843C50.2647 32.0247 50.1539 32.0449 50.0282 32.0449C49.8695 32.0449 49.728 32.0135 49.6038 31.9506C49.4795 31.8862 49.3822 31.8002 49.3118 31.6924C49.2415 31.5831 49.2063 31.4596 49.2063 31.3219C49.2063 31.1931 49.2303 31.0794 49.2782 30.9806C49.3276 30.8803 49.3994 30.7964 49.4937 30.7291C49.5895 30.6617 49.7063 30.6108 49.844 30.5764C49.9817 30.5404 50.1389 30.5225 50.3156 30.5225H50.74ZM52.8429 30.033V32H52.3017V29.5704H52.8182L52.8429 30.033ZM53.5861 29.5547L53.5816 30.0577C53.5487 30.0517 53.5128 30.0472 53.4739 30.0442C53.4364 30.0412 53.399 30.0397 53.3616 30.0397C53.2688 30.0397 53.1872 30.0532 53.1168 30.0801C53.0465 30.1056 52.9873 30.143 52.9394 30.1924C52.893 30.2403 52.8571 30.2987 52.8317 30.3675C52.8062 30.4364 52.7912 30.5135 52.7868 30.5988L52.6633 30.6078C52.6633 30.4551 52.6782 30.3137 52.7082 30.1834C52.7381 30.0532 52.783 29.9387 52.8429 29.8399C52.9043 29.7411 52.9806 29.664 53.0719 29.6086C53.1647 29.5532 53.2718 29.5255 53.393 29.5255C53.426 29.5255 53.4611 29.5285 53.4986 29.5345C53.5375 29.5405 53.5667 29.5472 53.5861 29.5547ZM54.9997 28.551V32H54.4563V28.551H54.9997ZM56.5087 29.5704L55.451 30.7425L54.8717 31.3353L54.7302 30.8773L55.1681 30.3361L55.8552 29.5704H56.5087ZM55.972 32L55.1838 30.8593L55.5251 30.4798L56.5985 32H55.972ZM60.335 30.5225H59.5019L59.4975 30.1116H60.225C60.3477 30.1116 60.4518 30.0936 60.5371 30.0577C60.6239 30.0202 60.6898 29.9671 60.7347 29.8982C60.7796 29.8279 60.8021 29.7433 60.8021 29.6445C60.8021 29.5352 60.7811 29.4462 60.7392 29.3773C60.6973 29.3084 60.6329 29.2583 60.5461 29.2269C60.4608 29.1954 60.3515 29.1797 60.2182 29.1797H59.6726V32H59.109V28.7306H60.2182C60.3979 28.7306 60.5581 28.7478 60.6988 28.7822C60.841 28.8167 60.9615 28.8706 61.0603 28.9439C61.1606 29.0158 61.2362 29.1071 61.2871 29.2179C61.3395 29.3286 61.3657 29.4604 61.3657 29.6131C61.3657 29.7478 61.3335 29.8713 61.2691 29.9836C61.2048 30.0943 61.1097 30.1849 60.984 30.2553C60.8582 30.3256 60.7018 30.3675 60.5147 30.381L60.335 30.5225ZM60.3103 32H59.3246L59.5783 31.5532H60.3103C60.4376 31.5532 60.5438 31.5322 60.6292 31.4903C60.7145 31.4469 60.7781 31.3877 60.82 31.3129C60.8634 31.2365 60.8852 31.1475 60.8852 31.0457C60.8852 30.9394 60.8664 30.8473 60.829 30.7695C60.7916 30.6901 60.7325 30.6295 60.6516 30.5876C60.5708 30.5442 60.4653 30.5225 60.335 30.5225H59.7018L59.7063 30.1116H60.5304L60.6584 30.2665C60.838 30.2725 60.9854 30.3122 61.1007 30.3855C61.2175 30.4589 61.3043 30.5539 61.3612 30.6707C61.4181 30.7874 61.4465 30.9132 61.4465 31.0479C61.4465 31.256 61.4009 31.4304 61.3095 31.5711C61.2197 31.7118 61.0902 31.8189 60.9211 31.8922C60.7519 31.9641 60.5483 32 60.3103 32ZM63.0689 28.551V32H62.5255V28.551H63.0689ZM64.981 31.5711L65.576 29.5704H66.1374L65.2931 32H64.9428L64.981 31.5711ZM64.5251 29.5704L65.1314 31.5801L65.1606 32H64.8103L63.9615 29.5704H64.5251ZM68.4514 31.497V28.551H68.9948V32H68.503L68.4514 31.497ZM66.8706 30.8121V30.765C66.8706 30.5809 66.8923 30.4132 66.9357 30.262C66.9791 30.1093 67.042 29.9783 67.1243 29.8691C67.2066 29.7583 67.3069 29.6737 67.4252 29.6153C67.5435 29.5554 67.6767 29.5255 67.8249 29.5255C67.9716 29.5255 68.1003 29.5539 68.2111 29.6108C68.3219 29.6677 68.4162 29.7493 68.494 29.8556C68.5719 29.9604 68.634 30.0861 68.6804 30.2328C68.7268 30.378 68.7598 30.5397 68.7792 30.7178V30.8683C68.7598 31.0419 68.7268 31.2006 68.6804 31.3443C68.634 31.488 68.5719 31.6123 68.494 31.7171C68.4162 31.8219 68.3211 31.9027 68.2089 31.9596C68.0981 32.0165 67.9686 32.0449 67.8204 32.0449C67.6737 32.0449 67.5412 32.0142 67.423 31.9528C67.3062 31.8915 67.2066 31.8054 67.1243 31.6946C67.042 31.5838 66.9791 31.4536 66.9357 31.3039C66.8923 31.1527 66.8706 30.9888 66.8706 30.8121ZM67.4117 30.765V30.8121C67.4117 30.9229 67.4215 31.0262 67.4409 31.122C67.4619 31.2178 67.4941 31.3024 67.5375 31.3758C67.5809 31.4476 67.637 31.5045 67.7059 31.5464C67.7762 31.5868 67.8601 31.607 67.9574 31.607C68.0801 31.607 68.1812 31.5801 68.2605 31.5262C68.3399 31.4723 68.402 31.3997 68.4469 31.3084C68.4933 31.2156 68.5247 31.1123 68.5412 30.9985V30.5921C68.5322 30.5038 68.5135 30.4214 68.4851 30.3451C68.4581 30.2687 68.4214 30.2021 68.375 30.1452C68.3286 30.0869 68.271 30.042 68.2021 30.0105C68.1348 29.9776 68.0547 29.9611 67.9619 29.9611C67.8631 29.9611 67.7792 29.9821 67.7104 30.024C67.6415 30.0659 67.5846 30.1235 67.5397 30.1969C67.4963 30.2702 67.4641 30.3556 67.4432 30.4529C67.4222 30.5502 67.4117 30.6542 67.4117 30.765Z" fill="white"/>
<path d="M51.2448 15.7306V19H50.6812L49.2149 16.658V19H48.6513V15.7306H49.2149L50.6857 18.0771V15.7306H51.2448ZM55.052 17.2755V17.4551C55.052 17.7021 55.0198 17.9237 54.9555 18.1198C54.8911 18.3159 54.799 18.4828 54.6793 18.6205C54.561 18.7582 54.4188 18.8638 54.2526 18.9371C54.0865 19.009 53.9023 19.0449 53.7002 19.0449C53.4997 19.0449 53.3163 19.009 53.1501 18.9371C52.9854 18.8638 52.8425 18.7582 52.7212 18.6205C52.6 18.4828 52.5057 18.3159 52.4383 18.1198C52.3724 17.9237 52.3395 17.7021 52.3395 17.4551V17.2755C52.3395 17.0285 52.3724 16.8077 52.4383 16.6131C52.5042 16.417 52.597 16.2501 52.7167 16.1123C52.838 15.9731 52.9809 15.8676 53.1456 15.7957C53.3118 15.7224 53.4952 15.6857 53.6958 15.6857C53.8978 15.6857 54.082 15.7224 54.2481 15.7957C54.4143 15.8676 54.5573 15.9731 54.677 16.1123C54.7968 16.2501 54.8888 16.417 54.9532 16.6131C55.0191 16.8077 55.052 17.0285 55.052 17.2755ZM54.4884 17.4551V17.271C54.4884 17.0884 54.4704 16.9274 54.4345 16.7882C54.4001 16.6475 54.3484 16.53 54.2796 16.4357C54.2122 16.3399 54.1291 16.268 54.0303 16.2201C53.9315 16.1707 53.82 16.146 53.6958 16.146C53.5715 16.146 53.4607 16.1707 53.3634 16.2201C53.2661 16.268 53.183 16.3399 53.1142 16.4357C53.0468 16.53 52.9952 16.6475 52.9592 16.7882C52.9233 16.9274 52.9054 17.0884 52.9054 17.271V17.4551C52.9054 17.6378 52.9233 17.7994 52.9592 17.9401C52.9952 18.0809 53.0476 18.1999 53.1164 18.2972C53.1868 18.393 53.2706 18.4656 53.3679 18.515C53.4652 18.5629 53.576 18.5868 53.7002 18.5868C53.826 18.5868 53.9375 18.5629 54.0348 18.515C54.1321 18.4656 54.2145 18.393 54.2818 18.2972C54.3492 18.1999 54.4001 18.0809 54.4345 17.9401C54.4704 17.7994 54.4884 17.6378 54.4884 17.4551ZM56.1445 15.7306H57.3009C57.5494 15.7306 57.7612 15.768 57.9364 15.8429C58.1115 15.9177 58.2455 16.0285 58.3383 16.1752C58.4326 16.3204 58.4798 16.5 58.4798 16.7141C58.4798 16.8773 58.4498 17.021 58.3899 17.1452C58.3301 17.2695 58.2455 17.3743 58.1362 17.4596C58.0269 17.5434 57.8967 17.6086 57.7455 17.655L57.5748 17.738H56.5352L56.5307 17.2912H57.3099C57.4446 17.2912 57.5569 17.2672 57.6467 17.2193C57.7365 17.1714 57.8039 17.1063 57.8488 17.024C57.8952 16.9402 57.9184 16.8459 57.9184 16.7411C57.9184 16.6273 57.8959 16.5285 57.851 16.4447C57.8076 16.3593 57.7403 16.2942 57.6489 16.2493C57.5576 16.2029 57.4416 16.1797 57.3009 16.1797H56.7081V19H56.1445V15.7306ZM58.0105 19L57.2425 17.5315L57.8331 17.5292L58.6122 18.9708V19H58.0105ZM60.7623 15.7306V19H60.2032V15.7306H60.7623ZM61.7885 15.7306V16.1797H59.186V15.7306H61.7885ZM64.9086 17.0958V17.5427H63.1729V17.0958H64.9086ZM63.3121 15.7306V19H62.7485V15.7306H63.3121ZM65.342 15.7306V19H64.7806V15.7306H65.342Z" fill="white"/>
<path d="M60.2311 7.46378V8H58.1482V7.46378H60.2311ZM58.3395 4.07672V8H57.6632V4.07672H58.3395ZM59.9589 5.71502V6.24315H58.1482V5.71502H59.9589ZM60.2176 4.07672V4.61564H58.1482V4.07672H60.2176ZM61.9327 4.07672L62.7654 5.50753L63.598 4.07672H64.3767L63.1911 6.0195L64.4064 8H63.6195L62.7654 6.54224L61.9112 8H61.1217L62.3396 6.0195L61.1513 4.07672H61.9327ZM66.2616 4.07672V8H65.5853V4.07672H66.2616ZM69.2701 4.07672V8H68.5992V4.07672H69.2701ZM70.5016 4.07672V4.61564H67.3786V4.07672H70.5016ZM75.2037 4.06325V8H74.5543V4.83389L73.5923 5.15994V4.62372L75.1255 4.06325H75.2037ZM79.9044 6.60152V7.11888H77.0751L77.0535 6.72817L78.7457 4.07672H79.2658L78.7026 5.04138L77.7299 6.60152H79.9044ZM79.414 4.07672V8H78.7646V4.07672H79.414ZM82.603 4.59947L81.4309 8H80.7222L82.1988 4.07672H82.6515L82.603 4.59947ZM83.5838 8L82.409 4.59947L82.3578 4.07672H82.8132L84.2952 8H83.5838ZM83.5273 6.54494V7.08116H81.3932V6.54494H83.5273Z" fill="white"/>
<line x1="16" y1="34.8273" x2="74.5196" y2="34.8273" stroke="white" stroke-width="0.390131"/>
<rect x="29" y="15" width="15.4286" height="7.71429" fill="white"/>
<path d="M32.9012 23.1833L33.4223 25.789L30.2955 23.1833H32.9012Z" fill="white" stroke="white" stroke-width="0.938071"/>
<path d="M34.087 20.4826V21H31.4571V20.5554L32.7343 19.1623C32.8744 19.0042 32.9849 18.8677 33.0657 18.7527C33.1466 18.6378 33.2032 18.5345 33.2355 18.4429C33.2696 18.3495 33.2867 18.2587 33.2867 18.1707C33.2867 18.0468 33.2633 17.9381 33.2166 17.8447C33.1717 17.7495 33.1053 17.6749 33.0172 17.621C32.9292 17.5653 32.8223 17.5375 32.6966 17.5375C32.5511 17.5375 32.4289 17.5689 32.3301 17.6318C32.2313 17.6947 32.1568 17.7818 32.1065 17.8932C32.0562 18.0028 32.031 18.1285 32.031 18.2704H31.3816C31.3816 18.0423 31.4337 17.8339 31.5379 17.6453C31.6421 17.4549 31.793 17.304 31.9906 17.1926C32.1882 17.0794 32.4262 17.0228 32.7047 17.0228C32.9669 17.0228 33.1897 17.0668 33.3729 17.1549C33.5561 17.2429 33.6954 17.3677 33.7906 17.5294C33.8876 17.6911 33.9361 17.8824 33.9361 18.1034C33.9361 18.2255 33.9163 18.3468 33.8768 18.4671C33.8373 18.5875 33.7807 18.7078 33.707 18.8282C33.6352 18.9467 33.5499 19.0662 33.4511 19.1866C33.3523 19.3051 33.2436 19.4255 33.125 19.5476L32.2762 20.4826H34.087ZM35.9099 19.1758L35.3925 19.0491L35.6054 17.0767H37.7206V17.6264H36.1443L36.0365 18.5884C36.0976 18.5524 36.182 18.5174 36.2898 18.4833C36.3976 18.4474 36.5207 18.4294 36.659 18.4294C36.844 18.4294 37.0093 18.4599 37.1548 18.521C37.3021 18.5803 37.4269 18.6674 37.5293 18.7824C37.6317 18.8956 37.7099 19.0339 37.7638 19.1973C37.8176 19.359 37.8446 19.5413 37.8446 19.7443C37.8446 19.9258 37.8176 20.0955 37.7638 20.2536C37.7117 20.4117 37.6326 20.5509 37.5266 20.6713C37.4206 20.7916 37.2868 20.8859 37.1251 20.9542C36.9653 21.0207 36.7757 21.0539 36.5566 21.0539C36.3931 21.0539 36.2359 21.0305 36.085 20.9838C35.9359 20.9353 35.8021 20.8644 35.6836 20.771C35.565 20.6758 35.4698 20.559 35.3979 20.4207C35.3261 20.2806 35.2848 20.1198 35.274 19.9383H35.9099C35.9261 20.0659 35.9611 20.1746 36.015 20.2644C36.0707 20.3524 36.1443 20.4198 36.2359 20.4665C36.3276 20.5132 36.4335 20.5365 36.5539 20.5365C36.6635 20.5365 36.7578 20.5177 36.8368 20.48C36.9159 20.4404 36.9814 20.3847 37.0335 20.3129C37.0874 20.2392 37.1269 20.153 37.1521 20.0542C37.179 19.9554 37.1925 19.8458 37.1925 19.7255C37.1925 19.6105 37.1772 19.5054 37.1467 19.4102C37.118 19.315 37.0739 19.2324 37.0147 19.1623C36.9572 19.0923 36.8844 19.0384 36.7964 19.0006C36.7084 18.9611 36.6069 18.9414 36.4919 18.9414C36.3374 18.9414 36.2189 18.9638 36.1362 19.0087C36.0554 19.0536 35.98 19.1093 35.9099 19.1758ZM39.681 19.1758L39.1636 19.0491L39.3765 17.0767H41.4917V17.6264H39.9154L39.8076 18.5884C39.8687 18.5524 39.9531 18.5174 40.0609 18.4833C40.1687 18.4474 40.2918 18.4294 40.4301 18.4294C40.6151 18.4294 40.7804 18.4599 40.9259 18.521C41.0732 18.5803 41.198 18.6674 41.3004 18.7824C41.4028 18.8956 41.4809 19.0339 41.5348 19.1973C41.5887 19.359 41.6157 19.5413 41.6157 19.7443C41.6157 19.9258 41.5887 20.0955 41.5348 20.2536C41.4827 20.4117 41.4037 20.5509 41.2977 20.6713C41.1917 20.7916 41.0579 20.8859 40.8962 20.9542C40.7364 21.0207 40.5468 21.0539 40.3277 21.0539C40.1642 21.0539 40.007 21.0305 39.8561 20.9838C39.707 20.9353 39.5732 20.8644 39.4546 20.771C39.3361 20.6758 39.2409 20.559 39.169 20.4207C39.0972 20.2806 39.0558 20.1198 39.0451 19.9383H39.681C39.6972 20.0659 39.7322 20.1746 39.7861 20.2644C39.8418 20.3524 39.9154 20.4198 40.007 20.4665C40.0986 20.5132 40.2046 20.5365 40.325 20.5365C40.4346 20.5365 40.5289 20.5177 40.6079 20.48C40.687 20.4404 40.7525 20.3847 40.8046 20.3129C40.8585 20.2392 40.898 20.153 40.9232 20.0542C40.9501 19.9554 40.9636 19.8458 40.9636 19.7255C40.9636 19.6105 40.9483 19.5054 40.9178 19.4102C40.889 19.315 40.845 19.2324 40.7858 19.1623C40.7283 19.0923 40.6555 19.0384 40.5675 19.0006C40.4795 18.9611 40.378 18.9414 40.263 18.9414C40.1085 18.9414 39.99 18.9638 39.9073 19.0087C39.8265 19.0536 39.751 19.1093 39.681 19.1758Z" fill="black"/>
</svg>
