<?xml version="1.0" encoding="utf-8"?>
<svg viewBox="0 0 500 500" xmlns="http://www.w3.org/2000/svg" xmlns:bx="https://boxy-svg.com">
  <rect x="25" y="36" width="430" height="430" style="stroke: rgb(0, 0, 0);"/>
  <ellipse style="stroke: rgb(0, 0, 0); fill: rgb(255, 255, 255);" cx="242" cy="250" rx="175" ry="175"/>
  <rect style="fill: rgb(247, 254, 57); stroke: rgb(247, 254, 57);" x="72" y="233" width="340" height="30" rx="17" ry="17" bx:origin="0.499225 0.5"/>
  <rect style="fill: rgb(247, 254, 57); stroke: rgb(247, 254, 57);" x="224" y="80" width="30" height="340" rx="17" ry="17"/>
  <rect style="fill: rgb(247, 254, 57); stroke: rgb(247, 254, 57);" transform="matrix(0.707145, -0.707068, 0.707068, 0.707145, -45.471737, 178.089233)" x="136.016" y="84.066" width="30" height="336.92" rx="17" ry="17"/>
  <rect style="fill: rgb(247, 254, 57); stroke: rgb(247, 254, 57);" transform="matrix(0.707107, 0.707107, -0.707107, 0.707107, 311.734558, -37.550026)" x="136.016" y="84.284" width="30" height="337.792" rx="17" ry="17"/>
</svg>