<svg width="89" height="72" viewBox="0 0 89 72" fill="none" xmlns="http://www.w3.org/2000/svg">
<circle cx="61.5" cy="23.5" r="16.5" fill="black"/>
<rect x="35" y="41" width="54" height="31" fill="black"/>
<rect y="41" width="35" height="13" fill="black"/>
<rect y="41" width="30" height="13" transform="rotate(-90 0 41)" fill="black"/>
<path d="M0 9.40004C0 8.68207 0.58203 8.10004 1.3 8.10004V8.10004C2.01797 8.10004 2.6 8.68207 2.6 9.40004V13.3H0V9.40004Z" fill="black"/>
<path d="M2.60001 7.8C2.60001 7.08203 3.18204 6.5 3.90001 6.5V6.5C4.61798 6.5 5.20001 7.08203 5.20001 7.8V14.3H2.60001V7.8Z" fill="black"/>
<path d="M5.2 6.20002C5.2 5.48205 5.78203 4.90002 6.5 4.90002V4.90002C7.21797 4.90002 7.8 5.48205 7.8 6.20002V15.3H5.2V6.20002Z" fill="black"/>
<path d="M7.8 1.3C7.8 0.582031 8.38203 0 9.1 0V0C9.81797 0 10.4 0.58203 10.4 1.3V14.3H7.8V1.3Z" fill="black"/>
<path d="M10.4 7.8C10.4 7.08203 10.982 6.5 11.7 6.5V6.5C12.418 6.5 13 7.08203 13 7.8V14.3H10.4V7.8Z" fill="black"/>
<path d="M15.2142 13.8201C15.6484 13.2484 16.4639 13.1369 17.0357 13.5711V13.5711C17.6075 14.0053 17.719 14.8209 17.2847 15.3926L12.2069 22.0788L10.1363 20.5063L15.2142 13.8201Z" fill="black"/>
</svg>
