<?xml version="1.0" encoding="UTF-8" standalone="no"?>
<svg
   xmlns:dc="http://purl.org/dc/elements/1.1/"
   xmlns:cc="http://creativecommons.org/ns#"
   xmlns:rdf="http://www.w3.org/1999/02/22-rdf-syntax-ns#"
   xmlns:svg="http://www.w3.org/2000/svg"
   xmlns="http://www.w3.org/2000/svg"
   xmlns:sodipodi="http://sodipodi.sourceforge.net/DTD/sodipodi-0.dtd"
   xmlns:inkscape="http://www.inkscape.org/namespaces/inkscape"
   width="74.429893"
   height="74.431252"
   viewBox="0 0 210.05775 210.06152"
   version="1.1"
   id="svg2"
   inkscape:version="0.48.2 r9819"
   sodipodi:docname="AJAX1.svg">
  <metadata
     id="metadata62">
    <rdf:RDF>
      <cc:Work
         rdf:about="">
        <dc:format>image/svg+xml</dc:format>
        <dc:type
           rdf:resource="http://purl.org/dc/dcmitype/StillImage" />
        <dc:title></dc:title>
      </cc:Work>
    </rdf:RDF>
  </metadata>
  <defs
     id="defs60" />
  <sodipodi:namedview
     pagecolor="#ffffff"
     bordercolor="#666666"
     borderopacity="1"
     objecttolerance="10"
     gridtolerance="10"
     guidetolerance="10"
     inkscape:pageopacity="0"
     inkscape:pageshadow="2"
     inkscape:window-width="1280"
     inkscape:window-height="1004"
     id="namedview58"
     showgrid="false"
     fit-margin-top="0"
     fit-margin-left="0"
     fit-margin-right="0"
     fit-margin-bottom="0"
     inkscape:zoom="8.0000001"
     inkscape:cx="41.235759"
     inkscape:cy="28.494524"
     inkscape:window-x="-8"
     inkscape:window-y="-8"
     inkscape:window-maximized="1"
     inkscape:current-layer="svg2" />
  <!-- draw the bicycle -->
  <!-- RIGHT -->
  <!-- LANE -->
  <!-- ONLY -->
  <path
     d="M 206.65025,96.805734 113.26995,3.43602 C 111.11095,1.262908 108.10881,-3.6983694e-5 105.03611,-3.6983694e-5 101.97047,-3.6983694e-5 98.97892,1.262908 96.79522,3.43602 L 3.4113897,96.805734 C 1.2418097,98.978844 -0.00702031,101.95982 2.9689291e-5,105.04663 0.02122969,108.11227 1.2488597,111.11088 3.4113897,113.28046 L 96.79522,206.64665 c 2.16253,2.16253 5.19289,3.41136 8.24795,3.41489 3.05153,-0.003 6.07483,-1.25236 8.23383,-3.41489 l 93.37325,-93.36266 c 2.79752,-2.79753 3.98991,-7.0097 3.13619,-10.86203 -0.50094,-2.21897 -1.72861,-3.866446 -3.13619,-5.616226"
     style="fill:#ffd033;fill-opacity:1;fill-rule:nonzero;stroke:none"
     id="path6132"
     inkscape:connector-curvature="0" />
  <path
     d="m 204.34308,110.97329 -93.36972,93.36619 c -1.56986,1.56281 -3.71828,2.45534 -5.93019,2.45534 -2.21192,0 -4.35681,-0.89253 -5.92667,-2.45534 L 5.7079797,110.96977 c -1.55223,-1.55223 -2.43417,-3.72886 -2.43417,-5.92667 0.007,-2.19781 0.889,-4.37797 2.43769,-5.930196 L 99.10944,5.718492 c 1.56281,-1.545167 3.73592,-2.430639 5.92667,-2.430639 2.19781,0 4.3815,0.885472 5.93725,2.430639 l 93.36972,93.397942 c 1.56633,1.569856 2.45181,3.714746 2.45181,5.926666 0,2.21544 -0.88548,4.36033 -2.45181,5.93019"
     style="fill:#000000;fill-opacity:1;fill-rule:evenodd;stroke:none"
     id="path6140"
     inkscape:connector-curvature="0" />
  <path
     d="m 201.12575,107.74891 c 0.70908,-0.70203 1.12183,-1.71451 1.12183,-2.70581 0,-0.98072 -0.41275,-2.02142 -1.12183,-2.71992 L 107.74192,8.94641 c -0.69497,-0.6985 -1.7145,-1.111251 -2.69875,-1.111251 -0.98778,0 -2.02142,0.412751 -2.72345,1.111251 L 8.9323697,102.32318 c -0.70556,0.70909 -1.09714,1.71803 -1.09714,2.71639 0.007,0.99836 0.39158,1.9932 1.10419,2.70581 l 93.3803003,93.39088 c 0.70203,0.6985 1.74272,1.11125 2.72345,1.11125 0.9913,0 2.00378,-0.41275 2.7058,-1.11125 l 93.37678,-93.38735 z"
     style="fill:#ffd033;fill-opacity:1;fill-rule:evenodd;stroke:none"
     id="path6144"
     inkscape:connector-curvature="0" />
  <path
     d="m 99.052968,69.080934 c -0.01072,-0.508 0.06703,-1.019528 -0.144639,-1.506361 -0.22225,-0.504472 -0.430389,-0.9525 -0.889,-1.291167 -0.419805,-0.306917 -0.829028,-0.5715 -1.358195,-0.66675 -0.522111,-0.0882 -1.100666,-0.186972 -1.527528,-0.536222 -0.395111,-0.331612 -0.726722,-0.635001 -1.023055,-1.061862 -0.275167,-0.384528 0.310444,-0.846667 0.560916,-1.068917 0.296334,-0.261055 0.680862,-0.709083 0.751417,-1.107722 0.04586,-0.257528 0.02455,-0.504473 0.123472,-0.751417 0.08819,-0.229306 0.229306,-0.426861 0.310445,-0.663222 0.169333,-0.486834 0.02484,-0.984251 0.148167,-1.460501 0.112889,-0.455083 0.246944,-0.881944 0.201083,-1.368778 -0.09525,-1.132417 -0.663222,-1.820334 -1.499306,-2.515306 -1.509889,-1.262945 -4.501445,-0.691445 -5.47864,1.012473 -0.553861,0.948972 -0.814917,1.9685 -0.8255,3.072695 -0.01058,1.04775 0.553861,2.010833 0.546806,3.01625 -0.0035,0.172861 0.05644,0.553862 -0.01764,0.705556 -0.119945,0.232833 -0.373945,0.07408 -0.592667,-0.02117 -0.366889,-0.165805 -1.054806,-0.172861 -1.439334,-0.0635 -0.448028,0.137584 -0.917222,0.236361 -1.400528,0.144639 -0.469194,-0.08114 -0.910167,-0.433917 -1.386417,-0.448028 -1.915584,-0.05997 -3.136195,1.277056 -3.453695,3.086807 l -4.067528,-0.716136 3.055056,-13.158615 55.128602,9.694336 -1.44287,13.701892 -34.279422,-6.028974 z m 39.288872,33.048226 c -0.0353,-0.24341 -0.10583,-0.46919 -0.15875,-0.71261 -0.0353,-0.13758 0.254,-0.55033 0.31397,-0.70908 0.43039,-1.06539 0.35984,-2.032001 0,-3.107974 -0.13053,-0.398639 0.0917,-1.0795 0.20814,-1.478139 0.0953,-0.352778 0.14817,-0.705556 0.21167,-1.054806 0.42333,-2.398889 0.86078,-4.790723 1.19944,-7.19314 0.28222,-1.98614 0.51506,-4.08164 -0.15522,-6.00428 -0.34219,-0.998361 -0.93133,-1.795639 -1.64747,-2.554111 -0.2152,-0.229306 -0.35984,-0.261056 -0.34573,-0.550334 0.0141,-0.3175 0.0282,-0.635 0.0423,-0.9525 0.13053,-2.832806 0.254,-5.66914 0.381,-8.501946 0.11995,-2.674056 0.24342,-5.348112 0.36337,-8.025696 0.0282,-0.613834 0.0282,-1.090084 -0.1517,-1.689806 -0.29986,-1.012473 -1.28763,-1.714501 -2.27541,-1.957917 -0.68792,-0.172861 -52.26757,-9.189864 -56.215155,-9.884836 -1.012472,-0.179917 -2.084917,-0.366889 -3.005667,0.282222 -0.627945,0.433917 -1.075973,0.963084 -1.30175,1.70039 -0.261056,0.839611 -0.522112,1.68275 -0.786695,2.529417 -1.534584,4.931834 -3.06564,9.867197 -4.600223,14.806087 -0.05997,0.186972 -0.892528,0.388055 -1.083028,0.518583 -0.405695,0.289278 -0.864306,0.536222 -1.231195,0.881945 -0.786695,0.737306 -1.259417,1.61925 -1.739195,2.568223 -0.426861,0.853722 -0.66675,1.93675 -0.867833,2.875139 -0.225778,1.058334 -0.426862,2.12725 -0.652639,3.196167 -0.455084,2.183695 -0.754945,4.395612 -1.143001,6.586363 -0.03175,0.179916 -0.01058,0.455083 -0.07056,0.613833 -0.07408,0.204611 -0.388055,0.440973 -0.518583,0.635 -0.310445,0.444501 -0.493889,0.920751 -0.592667,1.460501 -0.09525,0.550333 -0.08114,1.065389 0.02117,1.612195 0.03528,0.169333 -0.246945,0.377472 -0.335139,0.536222 -0.134056,0.246944 -0.239889,0.483306 -0.331611,0.758472 -0.201084,0.599723 -0.201084,1.245306 -0.02117,1.852084 0.08819,0.296334 0.225778,0.490361 0.179917,0.807861 -0.0635,0.412751 -0.127,0.818445 -0.186973,1.231195 l 5.118807,0.860778 -1.337028,7.775228 c 0,1.651 1.509889,3.22439 2.913945,3.84175 0.321028,0.14111 0.924278,0.29633 1.365251,0.37394 0.437444,0.0811 1.058333,0.13759 1.407583,0.11642 1.675695,-0.11642 3.725335,-0.80433 4.04989,-2.61761 l 1.365251,-7.7717 45.466014,7.99042 -1.36525,7.77522 c -0.31398,1.81681 1.37583,3.16089 2.91394,3.84175 0.32103,0.13759 0.92428,0.29634 1.36172,0.37395 0.44098,0.0741 1.05834,0.13758 1.40759,0.10936 1.53811,-0.10231 3.48897,-1.06186 4.05341,-2.61761 l 1.38642,-7.72584 5.14703,0.90311 c 0.0494,-0.26105 0.0952,-0.52211 0.14111,-0.78316 0.0459,-0.25047 0.0317,-0.59267 0.21167,-0.7867 0.34925,-0.36336 0.59972,-0.76552 0.762,-1.24178 0.17286,-0.508 0.20814,-0.96308 0.127,-1.49225"
     style="fill:#000000;fill-opacity:1;fill-rule:nonzero;stroke:none"
     id="path7928"
     inkscape:connector-curvature="0" />
  <path
     d="m 122.62558,133.33942 0,-16.17134 -97.222046,0 20.715116,20.71159 119.44,0 4.54025,-4.54025 -47.47332,0 z"
     style="fill:#000000;fill-opacity:1;fill-rule:nonzero;stroke:none"
     id="path7924"
     inkscape:connector-curvature="0" />
  <path
     d="m 79.022241,55.992875 -0.391583,1.679223 3.559528,4.928307 c 0.391584,-0.22225 0.829028,-0.366889 1.298223,-0.430389 l -4.466168,-6.177141 z"
     style="fill:#000000;fill-opacity:1;fill-rule:nonzero;stroke:none"
     id="path7932"
     inkscape:connector-curvature="0" />
</svg>
