<svg width="186" height="191" viewBox="0 0 186 191" fill="none" xmlns="http://www.w3.org/2000/svg">
<rect width="186" height="191" fill="black"/>
<rect y="181" width="186" height="3" fill="white"/>
<rect y="5" width="186" height="3" fill="white"/>
<path d="M81 56L89.6284 51.0184V60.9816L81 56ZM126 56.8628L88.7655 56.8628V55.1372L126 55.1372V56.8628Z" fill="white"/>
<path d="M105 133L96.3716 128.018V137.982L105 133ZM60 133.863H97.2345V132.137H60V133.863Z" fill="white"/>
<path d="M143 94L128 85.3397V102.66L143 94ZM98 95.5L129.5 95.5V92.5L98 92.5V95.5Z" fill="white"/>
<path d="M53 94L68 85.3397V102.66L53 94ZM98 95.5L66.5 95.5V92.5L98 92.5V95.5Z" fill="white"/>
<path d="M33 23L41.6284 18.0184V27.9816L33 23ZM78 23.8628L40.7655 23.8628V22.1372L78 22.1372V23.8628Z" fill="white"/>
<path d="M136.456 54.1272V56.8653C136.456 61.654 140.338 65.5361 145.127 65.5361H175.247C177.515 65.5361 179.354 63.6972 179.354 61.4289V49.5636C179.354 47.2952 177.515 45.4564 175.247 45.4564H145.127C140.338 45.4564 136.456 49.3384 136.456 54.1272Z" fill="white" stroke="black" stroke-width="0.912715"/>
<path d="M144.671 45.9128C144.671 48.4988 143.119 53.6709 136.913 53.6709" stroke="black" stroke-width="0.912715"/>
<path d="M144.671 65.5361C144.671 62.95 143.119 57.778 136.913 57.778" stroke="black" stroke-width="0.912715"/>
<path d="M156.536 65.536H170.683C171.439 65.536 172.052 64.9231 172.052 64.167V46.8254C172.052 46.0693 171.439 45.4563 170.683 45.4563H156.536C150.991 45.4563 146.496 49.9513 146.496 55.4962C146.496 61.041 150.991 65.536 156.536 65.536Z" stroke="black" stroke-width="0.912715"/>
<rect x="0.456358" y="0.456358" width="9.12716" height="13.6907" rx="1.36907" transform="matrix(0 1 1 0 154.254 50.4763)" stroke="black" stroke-width="0.912715"/>
<path d="M151.973 46.8256L155.167 51.3891" stroke="black" stroke-width="0.912715"/>
<path d="M167.945 51.389L171.596 45.9127" stroke="black" stroke-width="0.912715"/>
<path d="M167.945 59.6035L171.596 65.0797" stroke="black" stroke-width="0.912715"/>
<path d="M151.516 64.167L154.711 59.6034" stroke="black" stroke-width="0.912715"/>
<rect width="1.82543" height="1.82543" transform="matrix(0 1 1 0 175.247 47.7381)" fill="black"/>
<rect width="1.82543" height="1.82543" transform="matrix(0 1 1 0 175.247 61.4288)" fill="black"/>
<path d="M49.5436 131.127V133.865C49.5436 138.654 45.6616 142.536 40.8728 142.536H10.7532C8.48487 142.536 6.646 140.697 6.646 138.429V126.564C6.646 124.295 8.48487 122.456 10.7532 122.456H40.8728C45.6616 122.456 49.5436 126.338 49.5436 131.127Z" fill="white" stroke="black" stroke-width="0.912715"/>
<path d="M41.3292 122.913C41.3292 125.499 42.8808 130.671 49.0873 130.671" stroke="black" stroke-width="0.912715"/>
<path d="M41.3292 142.536C41.3292 139.95 42.8808 134.778 49.0873 134.778" stroke="black" stroke-width="0.912715"/>
<path d="M29.464 142.536H15.3169C14.5608 142.536 13.9478 141.923 13.9478 141.167V123.825C13.9478 123.069 14.5608 122.456 15.3169 122.456H29.464C35.0088 122.456 39.5038 126.951 39.5038 132.496C39.5038 138.041 35.0088 142.536 29.464 142.536Z" stroke="black" stroke-width="0.912715"/>
<rect x="31.2894" y="127.933" width="9.12716" height="13.6907" rx="1.36907" transform="rotate(90 31.2894 127.933)" stroke="black" stroke-width="0.912715"/>
<path d="M34.0275 123.826L30.833 128.389" stroke="black" stroke-width="0.912715"/>
<path d="M18.0549 128.389L14.4041 122.913" stroke="black" stroke-width="0.912715"/>
<path d="M18.0549 136.603L14.4041 142.08" stroke="black" stroke-width="0.912715"/>
<path d="M34.4839 141.167L31.2894 136.603" stroke="black" stroke-width="0.912715"/>
<rect x="10.7533" y="124.738" width="1.82543" height="1.82543" transform="rotate(90 10.7533 124.738)" fill="black"/>
<rect x="10.7533" y="138.429" width="1.82543" height="1.82543" transform="rotate(90 10.7533 138.429)" fill="black"/>
<path d="M88.4564 21.1272V23.8653C88.4564 28.654 92.3384 32.5361 97.1272 32.5361H127.247C129.515 32.5361 131.354 30.6972 131.354 28.4289V16.5636C131.354 14.2952 129.515 12.4564 127.247 12.4564H97.1272C92.3384 12.4564 88.4564 16.3384 88.4564 21.1272Z" fill="white" stroke="black" stroke-width="0.912715"/>
<path d="M96.6708 12.9128C96.6708 15.4988 95.1192 20.6709 88.9127 20.6709" stroke="black" stroke-width="0.912715"/>
<path d="M96.6708 32.5361C96.6708 29.95 95.1192 24.778 88.9127 24.778" stroke="black" stroke-width="0.912715"/>
<path d="M108.536 32.536H122.683C123.439 32.536 124.052 31.9231 124.052 31.167V13.8254C124.052 13.0693 123.439 12.4563 122.683 12.4563H108.536C102.991 12.4563 98.4962 16.9513 98.4962 22.4962C98.4962 28.041 102.991 32.536 108.536 32.536Z" stroke="black" stroke-width="0.912715"/>
<rect x="0.456358" y="0.456358" width="9.12716" height="13.6907" rx="1.36907" transform="matrix(0 1 1 0 106.254 17.4763)" stroke="black" stroke-width="0.912715"/>
<path d="M103.973 13.8256L107.167 18.3891" stroke="black" stroke-width="0.912715"/>
<path d="M119.945 18.389L123.596 12.9127" stroke="black" stroke-width="0.912715"/>
<path d="M119.945 26.6035L123.596 32.0797" stroke="black" stroke-width="0.912715"/>
<path d="M103.516 31.167L106.711 26.6034" stroke="black" stroke-width="0.912715"/>
<rect width="1.82543" height="1.82543" transform="matrix(0 1 1 0 127.247 14.7381)" fill="black"/>
<rect width="1.82543" height="1.82543" transform="matrix(0 1 1 0 127.247 28.4288)" fill="black"/>
<rect y="71" width="8" height="3" fill="#F2EA25"/>
<rect x="42" y="71" width="8" height="3" fill="#F2EA25"/>
<rect x="84" y="71" width="8" height="3" fill="#F2EA25"/>
<rect x="140" y="71" width="8" height="3" fill="#F2EA25"/>
<rect x="14" y="71" width="8" height="3" fill="#F2EA25"/>
<rect x="56" y="71" width="8" height="3" fill="#F2EA25"/>
<rect x="98" y="71" width="8" height="3" fill="#F2EA25"/>
<rect x="154" y="71" width="8" height="3" fill="#F2EA25"/>
<rect x="28" y="71" width="8" height="3" fill="#F2EA25"/>
<rect x="70" y="71" width="8" height="3" fill="#F2EA25"/>
<rect x="126" y="71" width="8" height="3" fill="#F2EA25"/>
<rect x="112" y="71" width="8" height="3" fill="#F2EA25"/>
<rect x="168" y="71" width="8" height="3" fill="#F2EA25"/>
<rect x="182" y="71" width="4" height="3" fill="#F2EA25"/>
<rect y="38" width="8" height="3" fill="white"/>
<rect x="42" y="38" width="8" height="3" fill="white"/>
<rect x="84" y="38" width="8" height="3" fill="white"/>
<rect x="140" y="38" width="8" height="3" fill="white"/>
<rect x="14" y="38" width="8" height="3" fill="white"/>
<rect x="56" y="38" width="8" height="3" fill="white"/>
<rect x="98" y="38" width="8" height="3" fill="white"/>
<rect x="154" y="38" width="8" height="3" fill="white"/>
<rect x="28" y="38" width="8" height="3" fill="white"/>
<rect x="70" y="38" width="8" height="3" fill="white"/>
<rect x="126" y="38" width="8" height="3" fill="white"/>
<rect x="112" y="38" width="8" height="3" fill="white"/>
<rect x="168" y="38" width="8" height="3" fill="white"/>
<rect x="182" y="38" width="4" height="3" fill="white"/>
<rect y="148" width="8" height="3" fill="white"/>
<rect x="42" y="148" width="8" height="3" fill="white"/>
<rect x="84" y="148" width="8" height="3" fill="white"/>
<rect x="140" y="148" width="8" height="3" fill="white"/>
<rect x="14" y="148" width="8" height="3" fill="white"/>
<rect x="56" y="148" width="8" height="3" fill="white"/>
<rect x="98" y="148" width="8" height="3" fill="white"/>
<rect x="154" y="148" width="8" height="3" fill="white"/>
<rect x="28" y="148" width="8" height="3" fill="white"/>
<rect x="70" y="148" width="8" height="3" fill="white"/>
<rect x="126" y="148" width="8" height="3" fill="white"/>
<rect x="112" y="148" width="8" height="3" fill="white"/>
<rect x="168" y="148" width="8" height="3" fill="white"/>
<rect x="182" y="148" width="4" height="3" fill="white"/>
<rect y="110" width="8" height="3" fill="#F2EA25"/>
<rect x="42" y="110" width="8" height="3" fill="#F2EA25"/>
<rect x="84" y="110" width="8" height="3" fill="#F2EA25"/>
<rect x="140" y="110" width="8" height="3" fill="#F2EA25"/>
<rect x="14" y="110" width="8" height="3" fill="#F2EA25"/>
<rect x="56" y="110" width="8" height="3" fill="#F2EA25"/>
<rect x="98" y="110" width="8" height="3" fill="#F2EA25"/>
<rect x="154" y="110" width="8" height="3" fill="#F2EA25"/>
<rect x="28" y="110" width="8" height="3" fill="#F2EA25"/>
<rect x="70" y="110" width="8" height="3" fill="#F2EA25"/>
<rect x="126" y="110" width="8" height="3" fill="#F2EA25"/>
<rect x="112" y="110" width="8" height="3" fill="#F2EA25"/>
<rect x="168" y="110" width="8" height="3" fill="#F2EA25"/>
<rect x="182" y="110" width="4" height="3" fill="#F2EA25"/>
<rect y="76" width="8" height="3" fill="#F2EA25"/>
<rect x="42" y="76" width="8" height="3" fill="#F2EA25"/>
<rect x="84" y="76" width="8" height="3" fill="#F2EA25"/>
<rect x="140" y="76" width="8" height="3" fill="#F2EA25"/>
<rect x="14" y="76" width="8" height="3" fill="#F2EA25"/>
<rect x="56" y="76" width="8" height="3" fill="#F2EA25"/>
<rect x="98" y="76" width="8" height="3" fill="#F2EA25"/>
<rect x="154" y="76" width="8" height="3" fill="#F2EA25"/>
<rect x="28" y="76" width="8" height="3" fill="#F2EA25"/>
<rect x="70" y="76" width="8" height="3" fill="#F2EA25"/>
<rect x="126" y="76" width="8" height="3" fill="#F2EA25"/>
<rect x="112" y="76" width="8" height="3" fill="#F2EA25"/>
<rect x="168" y="76" width="8" height="3" fill="#F2EA25"/>
<rect x="182" y="76" width="4" height="3" fill="#F2EA25"/>
<rect y="115" width="8" height="3" fill="#F2EA25"/>
<rect x="42" y="115" width="8" height="3" fill="#F2EA25"/>
<rect x="84" y="115" width="8" height="3" fill="#F2EA25"/>
<rect x="140" y="115" width="8" height="3" fill="#F2EA25"/>
<rect x="14" y="115" width="8" height="3" fill="#F2EA25"/>
<rect x="56" y="115" width="8" height="3" fill="#F2EA25"/>
<rect x="98" y="115" width="8" height="3" fill="#F2EA25"/>
<rect x="154" y="115" width="8" height="3" fill="#F2EA25"/>
<rect x="28" y="115" width="8" height="3" fill="#F2EA25"/>
<rect x="70" y="115" width="8" height="3" fill="#F2EA25"/>
<rect x="126" y="115" width="8" height="3" fill="#F2EA25"/>
<rect x="112" y="115" width="8" height="3" fill="#F2EA25"/>
<rect x="168" y="115" width="8" height="3" fill="#F2EA25"/>
<rect x="182" y="115" width="4" height="3" fill="#F2EA25"/>
</svg>
