<?xml version="1.0" encoding="UTF-8"?>
<svg xmlns="http://www.w3.org/2000/svg" width="89.918755" height="77.8675" viewBox="0,0 253.77071,219.75939">
	<path d="m 253.7707,159.43439 -34.8263,60.325 -184.1182,-0.004 L 0,159.43086 92.0573,0 l 69.7477,0 z" fill="#ed1c24"/>
	<path d="m 126.9329,2.164299 107.5655,186.309011 -215.1309,0 z" fill="#f57a26"/>
</svg>