<svg width="186" height="191" viewBox="0 0 186 191" fill="none" xmlns="http://www.w3.org/2000/svg">
<rect width="186" height="191" fill="black"/>
<rect y="181" width="186" height="3" fill="white"/>
<rect y="5" width="186" height="3" fill="white"/>
<path d="M81 56L89.6284 51.0184V60.9816L81 56ZM126 56.8628L88.7655 56.8628V55.1372L126 55.1372V56.8628Z" fill="white"/>
<path d="M105 133L96.3716 128.018V137.982L105 133ZM60 133.863H97.2345V132.137H60V133.863Z" fill="white"/>
<path d="M153 167L144.372 162.018V171.982L153 167ZM108 167.863H145.234V166.137H108V167.863Z" fill="white"/>
<path d="M33 23L41.6284 18.0184V27.9816L33 23ZM78 23.8628L40.7655 23.8628V22.1372L78 22.1372V23.8628Z" fill="white"/>
<path d="M136.456 54.1272V56.8653C136.456 61.654 140.338 65.5361 145.127 65.5361H175.247C177.515 65.5361 179.354 63.6972 179.354 61.4289V49.5636C179.354 47.2952 177.515 45.4564 175.247 45.4564H145.127C140.338 45.4564 136.456 49.3384 136.456 54.1272Z" fill="white" stroke="black" stroke-width="0.912715"/>
<path d="M144.671 45.9128C144.671 48.4988 143.119 53.6709 136.913 53.6709" stroke="black" stroke-width="0.912715"/>
<path d="M144.671 65.5361C144.671 62.95 143.119 57.778 136.913 57.778" stroke="black" stroke-width="0.912715"/>
<path d="M156.536 65.536H170.683C171.439 65.536 172.052 64.9231 172.052 64.167V46.8254C172.052 46.0693 171.439 45.4563 170.683 45.4563H156.536C150.991 45.4563 146.496 49.9513 146.496 55.4962C146.496 61.041 150.991 65.536 156.536 65.536Z" stroke="black" stroke-width="0.912715"/>
<rect x="0.456358" y="0.456358" width="9.12716" height="13.6907" rx="1.36907" transform="matrix(0 1 1 0 154.254 50.4763)" stroke="black" stroke-width="0.912715"/>
<path d="M151.973 46.8256L155.167 51.3891" stroke="black" stroke-width="0.912715"/>
<path d="M167.945 51.389L171.596 45.9127" stroke="black" stroke-width="0.912715"/>
<path d="M167.945 59.6035L171.596 65.0797" stroke="black" stroke-width="0.912715"/>
<path d="M151.516 64.167L154.711 59.6034" stroke="black" stroke-width="0.912715"/>
<rect width="1.82543" height="1.82543" transform="matrix(0 1 1 0 175.247 47.7381)" fill="black"/>
<rect width="1.82543" height="1.82543" transform="matrix(0 1 1 0 175.247 61.4288)" fill="black"/>
<path d="M49.5436 131.127V133.865C49.5436 138.654 45.6616 142.536 40.8728 142.536H10.7532C8.48487 142.536 6.646 140.697 6.646 138.429V126.564C6.646 124.295 8.48487 122.456 10.7532 122.456H40.8728C45.6616 122.456 49.5436 126.338 49.5436 131.127Z" fill="white" stroke="black" stroke-width="0.912715"/>
<path d="M41.3293 122.913C41.3293 125.499 42.8809 130.671 49.0873 130.671" stroke="black" stroke-width="0.912715"/>
<path d="M41.3293 142.536C41.3293 139.95 42.8809 134.778 49.0873 134.778" stroke="black" stroke-width="0.912715"/>
<path d="M29.464 142.536H15.3169C14.5608 142.536 13.9478 141.923 13.9478 141.167V123.825C13.9478 123.069 14.5608 122.456 15.3169 122.456H29.464C35.0088 122.456 39.5038 126.951 39.5038 132.496C39.5038 138.041 35.0088 142.536 29.464 142.536Z" stroke="black" stroke-width="0.912715"/>
<rect x="31.2894" y="127.933" width="9.12716" height="13.6907" rx="1.36907" transform="rotate(90 31.2894 127.933)" stroke="black" stroke-width="0.912715"/>
<path d="M34.0275 123.826L30.833 128.389" stroke="black" stroke-width="0.912715"/>
<path d="M18.0549 128.389L14.4041 122.913" stroke="black" stroke-width="0.912715"/>
<path d="M18.0549 136.603L14.4041 142.08" stroke="black" stroke-width="0.912715"/>
<path d="M34.4839 141.167L31.2894 136.603" stroke="black" stroke-width="0.912715"/>
<rect x="10.7533" y="124.738" width="1.82543" height="1.82543" transform="rotate(90 10.7533 124.738)" fill="black"/>
<rect x="10.7533" y="138.429" width="1.82543" height="1.82543" transform="rotate(90 10.7533 138.429)" fill="black"/>
<path d="M97.5436 165.127V167.865C97.5436 172.654 93.6616 176.536 88.8728 176.536H58.7532C56.4849 176.536 54.646 174.697 54.646 172.429V160.564C54.646 158.295 56.4849 156.456 58.7532 156.456H88.8728C93.6616 156.456 97.5436 160.338 97.5436 165.127Z" fill="white" stroke="black" stroke-width="0.912715"/>
<path d="M89.3293 156.913C89.3293 159.499 90.8809 164.671 97.0873 164.671" stroke="black" stroke-width="0.912715"/>
<path d="M89.3293 176.536C89.3293 173.95 90.8809 168.778 97.0873 168.778" stroke="black" stroke-width="0.912715"/>
<path d="M77.464 176.536H63.3169C62.5608 176.536 61.9478 175.923 61.9478 175.167V157.825C61.9478 157.069 62.5608 156.456 63.3169 156.456H77.464C83.0088 156.456 87.5038 160.951 87.5038 166.496C87.5038 172.041 83.0088 176.536 77.464 176.536Z" stroke="black" stroke-width="0.912715"/>
<rect x="79.2894" y="161.933" width="9.12716" height="13.6907" rx="1.36907" transform="rotate(90 79.2894 161.933)" stroke="black" stroke-width="0.912715"/>
<path d="M82.0275 157.826L78.833 162.389" stroke="black" stroke-width="0.912715"/>
<path d="M66.0549 162.389L62.4041 156.913" stroke="black" stroke-width="0.912715"/>
<path d="M66.0549 170.603L62.4041 176.08" stroke="black" stroke-width="0.912715"/>
<path d="M82.4839 175.167L79.2894 170.603" stroke="black" stroke-width="0.912715"/>
<rect x="58.7533" y="158.738" width="1.82543" height="1.82543" transform="rotate(90 58.7533 158.738)" fill="black"/>
<rect x="58.7533" y="172.429" width="1.82543" height="1.82543" transform="rotate(90 58.7533 172.429)" fill="black"/>
<path d="M88.4564 21.1272V23.8653C88.4564 28.654 92.3384 32.5361 97.1272 32.5361H127.247C129.515 32.5361 131.354 30.6972 131.354 28.4289V16.5636C131.354 14.2952 129.515 12.4564 127.247 12.4564H97.1272C92.3384 12.4564 88.4564 16.3384 88.4564 21.1272Z" fill="white" stroke="black" stroke-width="0.912715"/>
<path d="M96.6707 12.9128C96.6707 15.4988 95.1191 20.6709 88.9127 20.6709" stroke="black" stroke-width="0.912715"/>
<path d="M96.6707 32.5361C96.6707 29.95 95.1191 24.778 88.9127 24.778" stroke="black" stroke-width="0.912715"/>
<path d="M108.536 32.536H122.683C123.439 32.536 124.052 31.9231 124.052 31.167V13.8254C124.052 13.0693 123.439 12.4563 122.683 12.4563H108.536C102.991 12.4563 98.4962 16.9513 98.4962 22.4962C98.4962 28.041 102.991 32.536 108.536 32.536Z" stroke="black" stroke-width="0.912715"/>
<rect x="0.456358" y="0.456358" width="9.12716" height="13.6907" rx="1.36907" transform="matrix(0 1 1 0 106.254 17.4763)" stroke="black" stroke-width="0.912715"/>
<path d="M103.973 13.8256L107.167 18.3891" stroke="black" stroke-width="0.912715"/>
<path d="M119.945 18.389L123.596 12.9127" stroke="black" stroke-width="0.912715"/>
<path d="M119.945 26.6035L123.596 32.0797" stroke="black" stroke-width="0.912715"/>
<path d="M103.516 31.167L106.711 26.6034" stroke="black" stroke-width="0.912715"/>
<rect width="1.82543" height="1.82543" transform="matrix(0 1 1 0 127.247 14.7381)" fill="black"/>
<rect width="1.82543" height="1.82543" transform="matrix(0 1 1 0 127.247 28.4288)" fill="black"/>
<rect y="71" width="8" height="3" fill="#F2EA25"/>
<rect x="42" y="71" width="8" height="3" fill="#F2EA25"/>
<rect x="84" y="71" width="8" height="3" fill="#F2EA25"/>
<rect x="140" y="71" width="8" height="3" fill="#F2EA25"/>
<rect x="14" y="71" width="8" height="3" fill="#F2EA25"/>
<rect x="56" y="71" width="8" height="3" fill="#F2EA25"/>
<rect x="98" y="71" width="8" height="3" fill="#F2EA25"/>
<rect x="154" y="71" width="8" height="3" fill="#F2EA25"/>
<rect x="28" y="71" width="8" height="3" fill="#F2EA25"/>
<rect x="70" y="71" width="8" height="3" fill="#F2EA25"/>
<rect x="126" y="71" width="8" height="3" fill="#F2EA25"/>
<rect x="112" y="71" width="8" height="3" fill="#F2EA25"/>
<rect x="168" y="71" width="8" height="3" fill="#F2EA25"/>
<rect x="182" y="71" width="4" height="3" fill="#F2EA25"/>
<rect y="38" width="8" height="3" fill="white"/>
<rect x="42" y="38" width="8" height="3" fill="white"/>
<rect x="84" y="38" width="8" height="3" fill="white"/>
<rect x="140" y="38" width="8" height="3" fill="white"/>
<rect x="14" y="38" width="8" height="3" fill="white"/>
<rect x="56" y="38" width="8" height="3" fill="white"/>
<rect x="98" y="38" width="8" height="3" fill="white"/>
<rect x="154" y="38" width="8" height="3" fill="white"/>
<rect x="28" y="38" width="8" height="3" fill="white"/>
<rect x="70" y="38" width="8" height="3" fill="white"/>
<rect x="126" y="38" width="8" height="3" fill="white"/>
<rect x="112" y="38" width="8" height="3" fill="white"/>
<rect x="168" y="38" width="8" height="3" fill="white"/>
<rect x="182" y="38" width="4" height="3" fill="white"/>
<rect y="148" width="8" height="3" fill="white"/>
<rect x="42" y="148" width="8" height="3" fill="white"/>
<rect x="84" y="148" width="8" height="3" fill="white"/>
<rect x="140" y="148" width="8" height="3" fill="white"/>
<rect x="14" y="148" width="8" height="3" fill="white"/>
<rect x="56" y="148" width="8" height="3" fill="white"/>
<rect x="98" y="148" width="8" height="3" fill="white"/>
<rect x="154" y="148" width="8" height="3" fill="white"/>
<rect x="28" y="148" width="8" height="3" fill="white"/>
<rect x="70" y="148" width="8" height="3" fill="white"/>
<rect x="126" y="148" width="8" height="3" fill="white"/>
<rect x="112" y="148" width="8" height="3" fill="white"/>
<rect x="168" y="148" width="8" height="3" fill="white"/>
<rect x="182" y="148" width="4" height="3" fill="white"/>
<rect y="110" width="8" height="3" fill="#F2EA25"/>
<rect x="42" y="110" width="8" height="3" fill="#F2EA25"/>
<rect x="84" y="110" width="8" height="3" fill="#F2EA25"/>
<rect x="140" y="110" width="8" height="3" fill="#F2EA25"/>
<rect x="14" y="110" width="8" height="3" fill="#F2EA25"/>
<rect x="56" y="110" width="8" height="3" fill="#F2EA25"/>
<rect x="98" y="110" width="8" height="3" fill="#F2EA25"/>
<rect x="154" y="110" width="8" height="3" fill="#F2EA25"/>
<rect x="28" y="110" width="8" height="3" fill="#F2EA25"/>
<rect x="70" y="110" width="8" height="3" fill="#F2EA25"/>
<rect x="126" y="110" width="8" height="3" fill="#F2EA25"/>
<rect x="112" y="110" width="8" height="3" fill="#F2EA25"/>
<rect x="168" y="110" width="8" height="3" fill="#F2EA25"/>
<rect x="182" y="110" width="4" height="3" fill="#F2EA25"/>
<rect y="76" width="8" height="3" fill="#F2EA25"/>
<rect x="42" y="76" width="8" height="3" fill="#F2EA25"/>
<rect x="84" y="76" width="8" height="3" fill="#F2EA25"/>
<rect x="140" y="76" width="8" height="3" fill="#F2EA25"/>
<rect x="14" y="76" width="8" height="3" fill="#F2EA25"/>
<rect x="56" y="76" width="8" height="3" fill="#F2EA25"/>
<rect x="98" y="76" width="8" height="3" fill="#F2EA25"/>
<rect x="154" y="76" width="8" height="3" fill="#F2EA25"/>
<rect x="28" y="76" width="8" height="3" fill="#F2EA25"/>
<rect x="70" y="76" width="8" height="3" fill="#F2EA25"/>
<rect x="126" y="76" width="8" height="3" fill="#F2EA25"/>
<rect x="112" y="76" width="8" height="3" fill="#F2EA25"/>
<rect x="168" y="76" width="8" height="3" fill="#F2EA25"/>
<rect x="182" y="76" width="4" height="3" fill="#F2EA25"/>
<rect y="115" width="8" height="3" fill="#F2EA25"/>
<rect x="42" y="115" width="8" height="3" fill="#F2EA25"/>
<rect x="84" y="115" width="8" height="3" fill="#F2EA25"/>
<rect x="140" y="115" width="8" height="3" fill="#F2EA25"/>
<rect x="14" y="115" width="8" height="3" fill="#F2EA25"/>
<rect x="56" y="115" width="8" height="3" fill="#F2EA25"/>
<rect x="98" y="115" width="8" height="3" fill="#F2EA25"/>
<rect x="154" y="115" width="8" height="3" fill="#F2EA25"/>
<rect x="28" y="115" width="8" height="3" fill="#F2EA25"/>
<rect x="70" y="115" width="8" height="3" fill="#F2EA25"/>
<rect x="126" y="115" width="8" height="3" fill="#F2EA25"/>
<rect x="112" y="115" width="8" height="3" fill="#F2EA25"/>
<rect x="168" y="115" width="8" height="3" fill="#F2EA25"/>
<rect x="182" y="115" width="4" height="3" fill="#F2EA25"/>
<path d="M74.0616 102.82C73.8299 102.948 73.6237 103.06 73.4476 103.154C73.4158 102.86 73.3824 102.51 73.3585 102.151C73.3278 101.691 73.3139 101.233 73.3354 100.868C73.3462 100.685 73.365 100.542 73.3888 100.442C73.3935 100.423 73.3978 100.407 73.4017 100.394C73.7328 100.187 74.0504 99.9935 74.3597 99.8046C75.3624 99.1925 76.2777 98.6337 77.2851 97.8605C78.6477 96.8147 80.1815 95.378 82.4097 92.8629C82.4793 92.7842 82.5286 92.7677 82.556 92.7622C82.5902 92.7554 82.6515 92.7548 82.7529 92.7924C82.9726 92.874 83.2493 93.0852 83.5454 93.3921C83.8308 93.6879 84.0902 94.0259 84.2811 94.2954C84.3188 94.3487 84.3536 94.399 84.3851 94.4452C82.4684 97.0386 79.6464 99.2687 77.2396 100.878C75.9953 101.71 74.8726 102.369 74.0616 102.82Z" fill="white" stroke="white" stroke-width="1.09442"/>
<path d="M93.2012 84.2612L76.4708 88.7441L88.7183 100.992L93.2012 84.2612Z" fill="white"/>
<path d="M58 100H73.7842L73 104H58V100Z" fill="white"/>
<path d="M111.938 86.1804C112.17 86.0516 112.376 85.9399 112.552 85.8461C112.584 86.1401 112.618 86.4904 112.641 86.8489C112.672 87.3092 112.686 87.7672 112.665 88.1319C112.654 88.3152 112.635 88.4578 112.611 88.5578C112.607 88.5772 112.602 88.5931 112.598 88.6058C112.267 88.8126 111.95 89.0065 111.64 89.1954C110.638 89.8075 109.722 90.3663 108.715 91.1395C107.352 92.1853 105.819 93.622 103.59 96.1371C103.521 96.2158 103.471 96.2323 103.444 96.2378C103.41 96.2446 103.348 96.2452 103.247 96.2076C103.027 96.126 102.751 95.9148 102.455 95.6079C102.169 95.3121 101.91 94.9741 101.719 94.7046C101.681 94.6513 101.646 94.601 101.615 94.5548C103.532 91.9614 106.354 89.7313 108.76 88.1221C110.005 87.2901 111.127 86.6311 111.938 86.1804Z" fill="white" stroke="white" stroke-width="1.09442"/>
<path d="M92.7988 104.739L109.529 100.256L97.2817 88.0085L92.7988 104.739Z" fill="white"/>
<path d="M128 89H112.216L113 85H128V89Z" fill="white"/>
</svg>
